﻿


EVENT   1
 PAGE   1
  0()



EVENT   2
 PAGE   1
  0()



EVENT   3
 PAGE   1
  0()



EVENT   4
 PAGE   1
  0()



EVENT   5
 PAGE   1
  0()



EVENT   6
 PAGE   1
  0()



EVENT   7
 PAGE   1
  0()



EVENT   8
 PAGE   1
  0()



EVENT   9
 PAGE   1
  0()



EVENT   10
 PAGE   1
  0()



EVENT   11
 PAGE   1
  0()



EVENT   12
 PAGE   1
  0()



EVENT   14
 PAGE   1
  0()



EVENT   15
 PAGE   1
  0()



EVENT   16
 PAGE   1
  0()



EVENT   17
 PAGE   1
  0()



EVENT   18
 PAGE   1
  0()



EVENT   19
 PAGE   1
  0()



EVENT   20
 PAGE   1
  0()



EVENT   13
 PAGE   1
  0()



EVENT   21
 PAGE   1
  // condition: switch 611 is ON
  241(bytes(0x04,0x08,0x6f,0x3a,0x0d,0x52,0x50,0x47,0x3a,0x3a,0x42,0x47,0x4d,0x08,0x3a,0x0a,0x40,0x6e,0x61,0x6d,0x65,0x49,0x22,0x0b,0x73,0x74,0x61,0x67,0x65,0x31,0x06,0x3a,0x06,0x45,0x54,0x3a,0x0c,0x40,0x76,0x6f,0x6c,0x75,0x6d,0x65,0x69,0x69,0x3a,0x0b,0x40,0x70,0x69,0x74,0x63,0x68,0x69,0x69))
  ShowMessageFace("jack_fc1",1,0,2,1)
  ShowMessage("\\n<Pumpkin>ここで、カエル逃がしていい……？")
  ShowMessageFace("fairy_fc1",0,0,2,2)
  ShowMessage("\\n<Fell>わ～い、イタズラしちゃえ～♪")
  ShowMessageFace("braunys_fc1",6,0,2,3)
  ShowMessage("\\n<Love & Lamb>素振りしてたら、柱たおしちゃった……")
  ShowMessageFace("tfairy_fc1",0,0,2,4)
  ShowMessage("\\n<Milly & Liru>じゅうたんはがして、お花畑つくるよ♪")
  ShowMessageFace("elf_fc1",0,0,2,5)
  ShowMessage("\\n<Claudia>ちょっと、やめなさい！ 迷惑でしょ、こんなところで……！")
  ChangeSwitch(31,31,0)
  250(bytes(0x04,0x08,0x6f,0x3a,0x0c,0x52,0x50,0x47,0x3a,0x3a,0x53,0x45,0x08,0x3a,0x0a,0x40,0x6e,0x61,0x6d,0x65,0x49,0x22,0x0e,0x6d,0x6f,0x6e,0x5f,0x66,0x61,0x6c,0x6c,0x31,0x06,0x3a,0x06,0x45,0x54,0x3a,0x0b,0x40,0x70,0x69,0x74,0x63,0x68,0x69,0x69,0x3a,0x0c,0x40,0x76,0x6f,0x6c,0x75,0x6d,0x65,0x69,0x69))
  ShowMessageFace("elf_fc1",0,0,2,6)
  ShowMessage("\\n<Claudia>ああ～！！")
  ShowMessageFace("",0,0,2,7)
  ShowMessage("クローディアは落とし穴に落ちてしまった！")
  ShowMessageFace("fairys_fc1",3,0,2,8)
  ShowMessage("\\n<Fairies>えへへっ、おとしあな～♪")
  ShowMessageFace("",0,0,2,9)
  ShowMessage("\\n<Visitor>（大変だなぁ……）")
  ShowMessageFace("",0,0,2,10)
  ShowMessage("保護者に同情が集まっている……")
  Wait(30)
  221()
  242(1)
  Wait(60)
  211(1)
  281(1)
  TeleportPlayer(0,624,63,27,6,2)
  ChangeSwitch(31,31,1)
  ChangeSwitch(2119,2119,0)
  222()
  ShowMessageFace("",0,0,2,11)
  ShowMessage("\\n<Manager>色々と大変だねぇ……")
  If(2,"A",1)
   ChangeSelfSwitch("A",0)
   250(bytes(0x04,0x08,0x6f,0x3a,0x0c,0x52,0x50,0x47,0x3a,0x3a,0x53,0x45,0x08,0x3a,0x0a,0x40,0x6e,0x61,0x6d,0x65,0x49,0x22,0x0a,0x49,0x74,0x65,0x6d,0x31,0x06,0x3a,0x06,0x45,0x54,0x3a,0x0b,0x40,0x70,0x69,0x74,0x63,0x68,0x69,0x69,0x3a,0x0c,0x40,0x76,0x6f,0x6c,0x75,0x6d,0x65,0x69,0x55))
   ChangeInventoryArmor(1372,0,0,1,false)
   0()
  EndIf()
  ChangeSwitch(2119,2119,1)
  EndEventProcessing()
  0()



EVENT   23
 PAGE   1
  // condition: switch 612 is ON
  241(bytes(0x04,0x08,0x6f,0x3a,0x0d,0x52,0x50,0x47,0x3a,0x3a,0x42,0x47,0x4d,0x08,0x3a,0x0a,0x40,0x6e,0x61,0x6d,0x65,0x49,0x22,0x18,0x64,0x75,0x6e,0x67,0x65,0x6f,0x6e,0x5f,0x6f,0x62,0x61,0x6b,0x65,0x79,0x61,0x73,0x69,0x6b,0x69,0x06,0x3a,0x06,0x45,0x54,0x3a,0x0c,0x40,0x76,0x6f,0x6c,0x75,0x6d,0x65,0x69,0x69,0x3a,0x0b,0x40,0x70,0x69,0x74,0x63,0x68,0x69,0x69))
  ShowMessageFace("candle_fc1",0,0,2,1)
  ShowMessage("\\n<Chandra>うらめしいわ……")
  ShowMessageFace("ghost_fc1",0,0,2,2)
  ShowMessage("\\n<Carrie>うらめしいわ……")
  ShowMessageFace("sinkiro_fc1",4,0,2,3)
  ShowMessage("\\n<Mirage>うらめしやー♪")
  ShowMessageFace("shadow_fc1",0,0,2,4)
  ShowMessage("\\n<Shadow>……………………")
  ShowMessageFace("",0,0,2,5)
  ShowMessage("\\n<Visitor>なんか、呪われそうなステージだな……")
  ShowMessageFace("",0,0,2,6)
  ShowMessage("ステージは凍り付いている……")
  Wait(30)
  221()
  242(1)
  Wait(60)
  211(1)
  281(1)
  TeleportPlayer(0,624,63,27,6,2)
  ChangeSwitch(2119,2119,0)
  222()
  ShowMessageFace("",0,0,2,7)
  ShowMessage("\\n<Manager>おつかれさまでした…… ……なんだか、寒気がしますね。")
  If(2,"A",1)
   ChangeSelfSwitch("A",0)
   250(bytes(0x04,0x08,0x6f,0x3a,0x0c,0x52,0x50,0x47,0x3a,0x3a,0x53,0x45,0x08,0x3a,0x0a,0x40,0x6e,0x61,0x6d,0x65,0x49,0x22,0x0a,0x49,0x74,0x65,0x6d,0x31,0x06,0x3a,0x06,0x45,0x54,0x3a,0x0b,0x40,0x70,0x69,0x74,0x63,0x68,0x69,0x69,0x3a,0x0c,0x40,0x76,0x6f,0x6c,0x75,0x6d,0x65,0x69,0x55))
   ChangeInventoryArmor(1399,0,0,1,false)
   0()
  EndIf()
  ChangeSwitch(2119,2119,1)
  EndEventProcessing()
  0()



EVENT   24
 PAGE   1
  // condition: switch 613 is ON
  241(bytes(0x04,0x08,0x6f,0x3a,0x0d,0x52,0x50,0x47,0x3a,0x3a,0x42,0x47,0x4d,0x08,0x3a,0x0a,0x40,0x6e,0x61,0x6d,0x65,0x49,0x22,0x18,0x64,0x75,0x6e,0x67,0x65,0x6f,0x6e,0x5f,0x6f,0x62,0x61,0x6b,0x65,0x79,0x61,0x73,0x69,0x6b,0x69,0x06,0x3a,0x06,0x45,0x54,0x3a,0x0c,0x40,0x76,0x6f,0x6c,0x75,0x6d,0x65,0x69,0x69,0x3a,0x0b,0x40,0x70,0x69,0x74,0x63,0x68,0x69,0x69))
  ShowMessageFace("mummy_fc1",2,0,2,1)
  ShowMessage("\\n<Patra>我は見世物ではないぞ……")
  ShowMessageFace("frederika_fc1",0,0,2,2)
  ShowMessage("\\n<Frederica>全く、その通りだ……")
  ShowMessageFace("zonbe_fc3",0,0,2,3)
  ShowMessage("\\n<Zombie>あぅ……うぁぁ……")
  ShowMessageFace("",0,0,2,4)
  ShowMessage("\\n<Visitor A>なんだか、背中がかゆくなってきたぜ……")
  ShowMessageFace("",0,0,2,5)
  ShowMessage("\\n<Visitor B>ど、どうした……おれ……")
  ShowMessageFace("zonbe_fc3",1,0,2,6)
  ShowMessage("\\n<Zombie>おぉぉぉ……うぅ……")
  ShowMessageFace("zonbe_fc3",2,0,2,7)
  ShowMessage("\\n<Zombie>あ……うぁぁ……")
  ShowMessageFace("",0,0,2,8)
  ShowMessage("\\n<Visitor C>はら、へった……にく…… おぁぁぁ……")
  ShowMessageFace("",0,0,2,9)
  ShowMessage("\\n<Visitor D>かゆい……うま……")
  ShowMessageFace("",0,0,2,10)
  ShowMessage("バイオハザードだ！")
  Wait(30)
  221()
  242(1)
  Wait(60)
  211(1)
  281(1)
  TeleportPlayer(0,624,63,27,6,2)
  ChangeSwitch(2119,2119,0)
  222()
  ShowMessageFace("",0,0,2,11)
  ShowMessage("\\n<Manager>うう……あぁぁ……")
  If(2,"A",1)
   ChangeSelfSwitch("A",0)
   250(bytes(0x04,0x08,0x6f,0x3a,0x0c,0x52,0x50,0x47,0x3a,0x3a,0x53,0x45,0x08,0x3a,0x0a,0x40,0x6e,0x61,0x6d,0x65,0x49,0x22,0x0a,0x49,0x74,0x65,0x6d,0x31,0x06,0x3a,0x06,0x45,0x54,0x3a,0x0b,0x40,0x70,0x69,0x74,0x63,0x68,0x69,0x69,0x3a,0x0c,0x40,0x76,0x6f,0x6c,0x75,0x6d,0x65,0x69,0x55))
   ChangeInventoryArmor(1458,0,0,1,false)
   0()
  EndIf()
  ChangeSwitch(2119,2119,1)
  EndEventProcessing()
  0()



EVENT   25
 PAGE   1
  // condition: switch 614 is ON
  241(bytes(0x04,0x08,0x6f,0x3a,0x0d,0x52,0x50,0x47,0x3a,0x3a,0x42,0x47,0x4d,0x08,0x3a,0x0a,0x40,0x6e,0x61,0x6d,0x65,0x49,0x22,0x0b,0x73,0x74,0x61,0x67,0x65,0x34,0x06,0x3a,0x06,0x45,0x54,0x3a,0x0c,0x40,0x76,0x6f,0x6c,0x75,0x6d,0x65,0x69,0x69,0x3a,0x0b,0x40,0x70,0x69,0x74,0x63,0x68,0x69,0x69))
  ShowMessageFace("sonia_fc1",3,0,2,1)
  ShowMessage("\\n<Sonya>イリアスヴィル名物、千本ノックよー！ それそれそれー！！")
  ShowMessageFace("",0,0,2,2)
  ShowMessage("ソニアは棍棒を振り回し、客席に打球を放っている！")
  ShowMessageFace("orc_fc1",1,0,2,3)
  ShowMessage("\\n<Hip>ぶひー！　ガンガン行きますよー！")
  ShowMessageFace("kooni_fc1",1,0,2,4)
  ShowMessage("\\n<Shizuku>えいえいえいー！　小鬼打法、炸裂だよー！")
  ShowMessageFace("",0,0,2,5)
  ShowMessage("ヒップと雫は棍棒を振り回し、客席に打球を放っている！")
  ShowMessageFace("",0,0,2,6)
  ShowMessage("\\n<Visitor>ひぃっ！　な、なんだー！！")
  ShowMessageFace("",0,0,2,7)
  ShowMessage("客席は大混乱だ！")
  Wait(30)
  221()
  242(1)
  Wait(60)
  211(1)
  281(1)
  TeleportPlayer(0,624,63,27,6,2)
  ChangeSwitch(2119,2119,0)
  222()
  ShowMessageFace("",0,0,2,8)
  ShowMessage("\\n<Manager>ちょっと、いったい何のつもりだい……？")
  ShowMessageFace("sonia_fc4",0,0,2,9)
  ShowMessage("\\n<Sonya>田舎者だから、初ステージにテンション上がっちゃって…… ごめんなさい……")
  If(2,"A",1)
   ChangeSelfSwitch("A",0)
   250(bytes(0x04,0x08,0x6f,0x3a,0x0c,0x52,0x50,0x47,0x3a,0x3a,0x53,0x45,0x08,0x3a,0x0a,0x40,0x6e,0x61,0x6d,0x65,0x49,0x22,0x0a,0x49,0x74,0x65,0x6d,0x31,0x06,0x3a,0x06,0x45,0x54,0x3a,0x0b,0x40,0x70,0x69,0x74,0x63,0x68,0x69,0x69,0x3a,0x0c,0x40,0x76,0x6f,0x6c,0x75,0x6d,0x65,0x69,0x55))
   ChangeInventory_Item(7,0,0,3)
   0()
  EndIf()
  ChangeSwitch(2119,2119,1)
  EndEventProcessing()
  0()



EVENT   26
 PAGE   1
  // condition: switch 615 is ON
  241(bytes(0x04,0x08,0x6f,0x3a,0x0d,0x52,0x50,0x47,0x3a,0x3a,0x42,0x47,0x4d,0x08,0x3a,0x0a,0x40,0x6e,0x61,0x6d,0x65,0x49,0x22,0x14,0x64,0x75,0x6e,0x67,0x65,0x6f,0x6e,0x5f,0x75,0x72,0x61,0x79,0x61,0x6d,0x61,0x06,0x3a,0x06,0x45,0x54,0x3a,0x0c,0x40,0x76,0x6f,0x6c,0x75,0x6d,0x65,0x69,0x69,0x3a,0x0b,0x40,0x70,0x69,0x74,0x63,0x68,0x69,0x69))
  ShowMessageFace("slime_fc1",0,0,2,1)
  ShowMessage("\\n<Lime>おどるよー♪")
  ShowMessageFace("slime_fc1",0,0,2,2)
  ShowMessage("\\n<Lime>ブーメラン♪　ブーメラン♪")
  ShowMessageFace("",0,0,2,3)
  ShowMessage("\\n<Female Customer>わぁ、かわいい♪")
  ShowMessageFace("",0,0,2,4)
  ShowMessage("\\n<Middle-Aged Man>あれは、いいブーメランだ……")
  ShowMessageFace("",0,0,2,5)
  ShowMessage("そこそこ盛況だ！")
  Wait(30)
  221()
  242(1)
  Wait(60)
  211(1)
  281(1)
  TeleportPlayer(0,624,63,27,6,2)
  ChangeSwitch(2119,2119,0)
  222()
  ShowMessageFace("",0,0,2,6)
  ShowMessage("\\n<Manager>けっこうウケが良かったね。 またよろしく！")
  If(2,"A",1)
   ChangeSelfSwitch("A",0)
   250(bytes(0x04,0x08,0x6f,0x3a,0x0c,0x52,0x50,0x47,0x3a,0x3a,0x53,0x45,0x08,0x3a,0x0a,0x40,0x6e,0x61,0x6d,0x65,0x49,0x22,0x0a,0x49,0x74,0x65,0x6d,0x31,0x06,0x3a,0x06,0x45,0x54,0x3a,0x0b,0x40,0x70,0x69,0x74,0x63,0x68,0x69,0x69,0x3a,0x0c,0x40,0x76,0x6f,0x6c,0x75,0x6d,0x65,0x69,0x55))
   ChangeInventoryArmor(1330,0,0,1,false)
   0()
  EndIf()
  ChangeSwitch(2119,2119,1)
  EndEventProcessing()
  0()



EVENT   27
 PAGE   1
  // condition: switch 616 is ON
  241(bytes(0x04,0x08,0x6f,0x3a,0x0d,0x52,0x50,0x47,0x3a,0x3a,0x42,0x47,0x4d,0x08,0x3a,0x0a,0x40,0x6e,0x61,0x6d,0x65,0x49,0x22,0x0b,0x73,0x74,0x61,0x67,0x65,0x31,0x06,0x3a,0x06,0x45,0x54,0x3a,0x0c,0x40,0x76,0x6f,0x6c,0x75,0x6d,0x65,0x69,0x69,0x3a,0x0b,0x40,0x70,0x69,0x74,0x63,0x68,0x69,0x69))
  ShowMessageFace("name_fc1",2,0,2,1)
  ShowMessage("\\n<Melk>ぬねぬめ……")
  ShowMessageFace("highslag_fc1",0,0,2,2)
  ShowMessage("\\n<Elizabeth>ぬるぬる……")
  ShowMessageFace("name_s_fc1",0,0,2,3)
  ShowMessage("\\n<Rosary>ネバネバ……")
  ShowMessageFace("name2_fc2",1,0,2,4)
  ShowMessage("\\n<Melty>ヌルヌル……")
  ShowMessageFace("",0,0,2,5)
  ShowMessage("\\n<Visitor>……………………")
  Wait(30)
  221()
  242(1)
  Wait(60)
  211(1)
  281(1)
  TeleportPlayer(0,624,63,27,6,2)
  ChangeSwitch(2119,2119,0)
  222()
  ShowMessageFace("",0,0,2,6)
  ShowMessage("\\n<Manager>塩、買ってこなきゃ…… いえいえ、こちらの事ですよ。")
  If(2,"A",1)
   ChangeSelfSwitch("A",0)
   250(bytes(0x04,0x08,0x6f,0x3a,0x0c,0x52,0x50,0x47,0x3a,0x3a,0x53,0x45,0x08,0x3a,0x0a,0x40,0x6e,0x61,0x6d,0x65,0x49,0x22,0x0a,0x49,0x74,0x65,0x6d,0x31,0x06,0x3a,0x06,0x45,0x54,0x3a,0x0b,0x40,0x70,0x69,0x74,0x63,0x68,0x69,0x69,0x3a,0x0c,0x40,0x76,0x6f,0x6c,0x75,0x6d,0x65,0x69,0x55))
   ChangeInventoryArmor(1581,0,0,1,false)
   0()
  EndIf()
  ChangeSwitch(2119,2119,1)
  EndEventProcessing()
  0()



EVENT   28
 PAGE   1
  // condition: switch 617 is ON
  241(bytes(0x04,0x08,0x6f,0x3a,0x0d,0x52,0x50,0x47,0x3a,0x3a,0x42,0x47,0x4d,0x08,0x3a,0x0a,0x40,0x6e,0x61,0x6d,0x65,0x49,0x22,0x0b,0x73,0x74,0x61,0x67,0x65,0x31,0x06,0x3a,0x06,0x45,0x54,0x3a,0x0c,0x40,0x76,0x6f,0x6c,0x75,0x6d,0x65,0x69,0x69,0x3a,0x0b,0x40,0x70,0x69,0x74,0x63,0x68,0x69,0x69))
  ShowMessageFace("name_fc1",0,0,2,1)
  ShowMessage("\\n<Melk>ステージって、なんだかジメジメしない場所ねぇ…… この辺にキノコ植えていいかしら？")
  ShowMessageFace("mimizu_fc1",0,0,2,2)
  ShowMessage("\\n<Mimi>あなほり、あなほり…… ……絨毯の下、木の床じゃない。")
  ShowMessageFace("hiru_fc1",0,0,2,3)
  ShowMessage("\\n<Hiru>お気に入りの沼からコケを持ってきたわ。 その辺に撒きましょう……")
  ShowMessageFace("",0,0,2,4)
  ShowMessage("\\n<Visitor>（やりたい放題だな……）")
  ShowMessageFace("",0,0,2,5)
  ShowMessage("ステージはジメジメした雰囲気だ……")
  Wait(30)
  221()
  242(1)
  Wait(60)
  211(1)
  281(1)
  TeleportPlayer(0,624,63,27,6,2)
  ChangeSwitch(2119,2119,0)
  222()
  ShowMessageFace("",0,0,2,6)
  ShowMessage("\\n<Manager>いやぁ、すっかりジメジメした雰囲気だね。 あっ、こんなところにもキノコが……")
  If(2,"A",1)
   ChangeSelfSwitch("A",0)
   250(bytes(0x04,0x08,0x6f,0x3a,0x0c,0x52,0x50,0x47,0x3a,0x3a,0x53,0x45,0x08,0x3a,0x0a,0x40,0x6e,0x61,0x6d,0x65,0x49,0x22,0x0a,0x49,0x74,0x65,0x6d,0x31,0x06,0x3a,0x06,0x45,0x54,0x3a,0x0b,0x40,0x70,0x69,0x74,0x63,0x68,0x69,0x69,0x3a,0x0c,0x40,0x76,0x6f,0x6c,0x75,0x6d,0x65,0x69,0x55))
   ChangeInventory_Item(443,0,0,3)
   0()
  EndIf()
  ChangeSwitch(2119,2119,1)
  EndEventProcessing()
  0()



EVENT   29
 PAGE   1
  // condition: switch 618 is ON
  241(bytes(0x04,0x08,0x6f,0x3a,0x0d,0x52,0x50,0x47,0x3a,0x3a,0x42,0x47,0x4d,0x08,0x3a,0x0a,0x40,0x6e,0x61,0x6d,0x65,0x49,0x22,0x0b,0x73,0x74,0x61,0x67,0x65,0x31,0x06,0x3a,0x06,0x45,0x54,0x3a,0x0c,0x40,0x76,0x6f,0x6c,0x75,0x6d,0x65,0x69,0x69,0x3a,0x0b,0x40,0x70,0x69,0x74,0x63,0x68,0x69,0x69))
  ShowMessageFace("inp_fc1",0,0,2,1)
  ShowMessage("\\n<Rami>お空をとぶよ～♪ ぱたぱた～♪")
  ShowMessageFace("",0,0,2,2)
  ShowMessage("\\n<Visitor A>（ハネてるだけだ……）")
  ShowMessageFace("inp_fc3",0,0,2,3)
  ShowMessage("\\n<Rumi>くた～")
  ShowMessageFace("inp_fc2",2,0,2,4)
  ShowMessage("\\n<Remi>びくびく……")
  ShowMessageFace("",0,0,2,5)
  ShowMessage("\\n<Visitor B>（何しに出てきたんだ……？）")
  ShowMessageFace("",0,0,2,6)
  ShowMessage("ステージは微妙な雰囲気だ……")
  Wait(30)
  221()
  242(1)
  Wait(60)
  211(1)
  281(1)
  TeleportPlayer(0,624,63,27,6,2)
  ChangeSwitch(2119,2119,0)
  222()
  ShowMessageFace("",0,0,2,7)
  ShowMessage("\\n<Manager>ああ、うん…… まあ、がんばったと思うよ……")
  If(2,"A",1)
   ChangeSelfSwitch("A",0)
   250(bytes(0x04,0x08,0x6f,0x3a,0x0c,0x52,0x50,0x47,0x3a,0x3a,0x53,0x45,0x08,0x3a,0x0a,0x40,0x6e,0x61,0x6d,0x65,0x49,0x22,0x0a,0x49,0x74,0x65,0x6d,0x31,0x06,0x3a,0x06,0x45,0x54,0x3a,0x0b,0x40,0x70,0x69,0x74,0x63,0x68,0x69,0x69,0x3a,0x0c,0x40,0x76,0x6f,0x6c,0x75,0x6d,0x65,0x69,0x55))
   ChangeInventory_Item(21,0,0,3)
   0()
  EndIf()
  ChangeSwitch(2119,2119,1)
  EndEventProcessing()
  0()



EVENT   30
 PAGE   1
  // condition: switch 619 is ON
  241(bytes(0x04,0x08,0x6f,0x3a,0x0d,0x52,0x50,0x47,0x3a,0x3a,0x42,0x47,0x4d,0x08,0x3a,0x0a,0x40,0x6e,0x61,0x6d,0x65,0x49,0x22,0x14,0x64,0x75,0x6e,0x67,0x65,0x6f,0x6e,0x5f,0x75,0x72,0x61,0x79,0x61,0x6d,0x61,0x06,0x3a,0x06,0x45,0x54,0x3a,0x0c,0x40,0x76,0x6f,0x6c,0x75,0x6d,0x65,0x69,0x69,0x3a,0x0b,0x40,0x70,0x69,0x74,0x63,0x68,0x69,0x69))
  ShowMessageFace("bunnyslime_fc1",0,0,2,1)
  ShowMessage("\\n<Bunni>うさぴょん♪　うさぴょん♪ うさうさぴょん♪")
  ShowMessageFace("",0,0,2,2)
  ShowMessage("\\n<Female Customer>わぁ、かわいい♪")
  ShowMessageFace("",0,0,2,3)
  ShowMessage("\\n<Old Man>でも、ウサギじゃないよなぁ……")
  ShowMessageFace("",0,0,2,4)
  ShowMessage("ステージはそこそこ盛り上がっている！")
  Wait(30)
  221()
  242(1)
  Wait(60)
  211(1)
  281(1)
  TeleportPlayer(0,624,63,27,6,2)
  ChangeSwitch(2119,2119,0)
  222()
  ShowMessageFace("",0,0,2,5)
  ShowMessage("\\n<Manager>よくがんばったね。 お客さん達も喜んでいたよ。")
  If(2,"A",1)
   ChangeSelfSwitch("A",0)
   250(bytes(0x04,0x08,0x6f,0x3a,0x0c,0x52,0x50,0x47,0x3a,0x3a,0x53,0x45,0x08,0x3a,0x0a,0x40,0x6e,0x61,0x6d,0x65,0x49,0x22,0x0a,0x49,0x74,0x65,0x6d,0x31,0x06,0x3a,0x06,0x45,0x54,0x3a,0x0b,0x40,0x70,0x69,0x74,0x63,0x68,0x69,0x69,0x3a,0x0c,0x40,0x76,0x6f,0x6c,0x75,0x6d,0x65,0x69,0x55))
   ChangeInventory_Item(310,0,0,3)
   0()
  EndIf()
  ChangeSwitch(2119,2119,1)
  EndEventProcessing()
  0()



EVENT   31
 PAGE   1
  // condition: switch 620 is ON
  241(bytes(0x04,0x08,0x6f,0x3a,0x0d,0x52,0x50,0x47,0x3a,0x3a,0x42,0x47,0x4d,0x08,0x3a,0x0a,0x40,0x6e,0x61,0x6d,0x65,0x49,0x22,0x14,0x64,0x75,0x6e,0x67,0x65,0x6f,0x6e,0x5f,0x75,0x72,0x61,0x79,0x61,0x6d,0x61,0x06,0x3a,0x06,0x45,0x54,0x3a,0x0c,0x40,0x76,0x6f,0x6c,0x75,0x6d,0x65,0x69,0x69,0x3a,0x0b,0x40,0x70,0x69,0x74,0x63,0x68,0x69,0x69))
  ShowMessageFace("bunnyslime_fc1",0,0,2,1)
  ShowMessage("\\n<Bunni>うさぴょん♪　うさぴょん♪ うさうさぴょん♪")
  ShowMessageFace("",0,0,2,2)
  ShowMessage("\\n<Female Customer>わぁ、かわいい♪")
  ShowMessageFace("usagi_fc1",1,0,2,3)
  ShowMessage("\\n<Barnny>うさぴょん♪　うさぴょん♪ うさうさぴょん♪")
  ShowMessageFace("",0,0,2,4)
  ShowMessage("\\n<Old Man>うぉぉ……おっぱいぷるんぷるん！")
  ShowMessageFace("",0,0,2,5)
  ShowMessage("ステージはかなり盛り上がっている！")
  Wait(30)
  221()
  242(1)
  Wait(60)
  211(1)
  281(1)
  TeleportPlayer(0,624,63,27,6,2)
  ChangeSwitch(2119,2119,0)
  222()
  ShowMessageFace("",0,0,2,6)
  ShowMessage("\\n<Manager>よくがんばったね。 お客さん達も喜んでいたよ。")
  If(2,"A",1)
   ChangeSelfSwitch("A",0)
   250(bytes(0x04,0x08,0x6f,0x3a,0x0c,0x52,0x50,0x47,0x3a,0x3a,0x53,0x45,0x08,0x3a,0x0a,0x40,0x6e,0x61,0x6d,0x65,0x49,0x22,0x0a,0x49,0x74,0x65,0x6d,0x31,0x06,0x3a,0x06,0x45,0x54,0x3a,0x0b,0x40,0x70,0x69,0x74,0x63,0x68,0x69,0x69,0x3a,0x0c,0x40,0x76,0x6f,0x6c,0x75,0x6d,0x65,0x69,0x55))
   ChangeInventory_Item(412,0,0,3)
   0()
  EndIf()
  ChangeSwitch(2119,2119,1)
  EndEventProcessing()
  0()



EVENT   22
 PAGE   1
  // condition: switch 615 is ON
  0()
 PAGE   2
  // condition: switch 617 is ON
  0()
 PAGE   3
  // condition: switch 619 is ON
  0()



EVENT   59
 PAGE   1
  // condition: switch 620 is ON
  0()



EVENT   60
 PAGE   1
  // condition: switch 620 is ON
  0()



EVENT   56
 PAGE   1
  // condition: switch 618 is ON
  0()



EVENT   57
 PAGE   1
  // condition: switch 618 is ON
  0()



EVENT   58
 PAGE   1
  // condition: switch 618 is ON
  0()



EVENT   32
 PAGE   1
  // condition: switch 611 is ON
  0()



EVENT   33
 PAGE   1
  // condition: switch 611 is ON
  0()



EVENT   34
 PAGE   1
  // condition: switch 611 is ON
  0()



EVENT   35
 PAGE   1
  // condition: switch 611 is ON
  0()



EVENT   45
 PAGE   1
  // condition: switch 614 is ON
  0()



EVENT   47
 PAGE   1
  // condition: switch 614 is ON
  0()



EVENT   46
 PAGE   1
  // condition: switch 614 is ON
  0()



EVENT   48
 PAGE   1
  // condition: switch 617 is ON
  0()



EVENT   53
 PAGE   1
  // condition: switch 617 is ON
  0()



EVENT   52
 PAGE   1
  // condition: switch 616 is ON
  0()



EVENT   49
 PAGE   1
  // condition: switch 616 is ON
  0()



EVENT   50
 PAGE   1
  // condition: switch 616 is ON
  0()



EVENT   51
 PAGE   1
  // condition: switch 616 is ON
  0()



EVENT   37
 PAGE   1
  // condition: switch 612 is ON
  0()



EVENT   38
 PAGE   1
  // condition: switch 612 is ON
  0()



EVENT   39
 PAGE   1
  // condition: switch 612 is ON
  0()



EVENT   40
 PAGE   1
  // condition: switch 612 is ON
  0()



EVENT   43
 PAGE   1
  // condition: switch 613 is ON
  0()



EVENT   44
 PAGE   1
  // condition: switch 613 is ON
  0()



EVENT   41
 PAGE   1
  // condition: switch 613 is ON
  0()



EVENT   54
 PAGE   1
  // condition: switch 613 is ON
  0()



EVENT   55
 PAGE   1
  // condition: switch 613 is ON
  0()



EVENT   42
 PAGE   1
  // condition: switch 613 is ON
  0()



EVENT   61
 PAGE   1
  // condition: switch 611 is ON
  0()
 PAGE   2
  // condition: switch 611 is ON
  // condition: switch 31 is ON
  0()



EVENT   36
 PAGE   1
  // condition: switch 611 is ON
  0()



EVENT   64
 PAGE   1
  // condition: switch 611 is ON
  0()



EVENT   65
 PAGE   1
  // condition: switch 611 is ON
  0()



EVENT   66
 PAGE   1
  // condition: switch 611 is ON
  0()



EVENT   62
 PAGE   1
  // condition: switch 611 is ON
  0()



EVENT   63
 PAGE   1
  // condition: switch 611 is ON
  0()



EVENT   67
 PAGE   1
  // condition: switch 613 is ON
  0()



EVENT   68
 PAGE   1
  // condition: switch 613 is ON
  0()



EVENT   69
 PAGE   1
  // condition: switch 613 is ON
  0()
