# -*- encoding: utf-8 -*-
=begin
=転職_職業データ設定セクション by Foo

転職画面で扱う職業データを設定するセクションです

==更新履歴
Date     Version Author Comment
13/08/05 1.1.0   Foo    表示行数設定の変更
13/08/05 1.0.0   Foo    試作

=end

#==============================================================================
# ■ NWConst::JobChange
#==============================================================================
module NWConst::JobChange
  JOB_DESC_TEXT = {
    1 => # 戦士
      [[
        "An ordinary fighter and the first step for all warrior-type",
        "jobs. Better than average attack and defense, but poor with",
        "and against magic. Capable of using basic weapons such as",
        "swords and spears, but not knight swords and heavy weapons.",
        "Learns mostly basic sword skills.",
      ],
      [
        "Weapons: Daggers Swords Rapiers Spears Axes Clubs Scythes Flails",
        "Skills: Daggers Swords Rapiers",
        "Ability: Equip Light Armor",
        "",
      ]],
    2 => # 剣士
      [[
        "An accomplished master of the blade. Newfound strength",
        "strength grants usage of the mighty knight sword, wide",
        "range sword skills, and enhanced attack and defense.",
        "Unfortunately, magic is still out of the question.",
      ],
      [
        "Weapons: Daggers　Swords　Knight Swords　Rapiers Spears Axes Scythes",
        "Skills: Daggers　Swords　Rapiers",
        "Ability: Equip Heavy Armor",
        "",
      ]],
    5 => # 聖堂騎士
      [[
        "A holy soldier bearing a Priest's piety and a Warrior's",
        "bravery. Wields SP-fueled healing magic and adept with",
        "heavy spears. Learns abilities that aid in banishing the",
        "undead to the grave.",
      ],
      [
        "Weapons: Daggers　Rapiers　Spears　Heavy Spears",
        "Skills: Rapiers Spears White Magic Holy",
        "Ability: Equip Heavy Armor",
        "",
      ]],
    7 => # 魔法戦士
      [[
        "Specialized fighter trained in sword and magic, the Spellblade",
        "style is born. A soldier's strength is retained and black magic",
        "can be used. The sword itself can be enchanted with various",
        "attributes to inflict elemental damage and status ailments.",
      ],
      [
        "Weapons: Daggers Swords Rapiers",
        "Skills: Daggers　Swords　Black Magic　Magic Swords",
        "Ability: Equip Light Armor",
        "",
      ]],
    9 => # 竜騎士
      [[
        "Spear-wielding aerodynamic knight who leaps to the skies",
        "and toys with foes. Spear skills consist of harpy",
        "slaying attacks and blinding speed. Magic stats on the",
        "other hand aren't very respectable.",
      ],
      [
        "Weapons: Rapiers Spears Heavy Spears",
        "Skills: Rapiers Spears",
        "Ability: Equip Heavy Armor",
        "",
      ]],
    15 => # パワーファイター
      [[
        "A crude fighter who thoroughly smashes foes with hidden power.",
        "Forgoes the blade in favor of blunt weapons like clubs and",
        "flails. Like most warriors, attack is great while magic stays",
        "low.",
      ],
      [
        "Weapons: Great Swords　Axes　Clubs　Flails",
        "Skills: Axes Clubs Flails",
        "Ability: Endure　Equip Heavy Armor",
        "",
      ]],
    17 => # 狂戦士
      [[
        "Rabid feral warrior fighting on pure instinct, tearing",
        "foes with extreme strength at the expense of sanity.",
        "In exchange, the SP regeneration rate is doubled and",
        "new axe skills can be learned.",
      ],
      [
        "Weapons: Great Swords　Axes　Clubs　Flails",
        "Skills: Axes　Clubs　Flails",
        "Ability: Berserk　Double SP Charge",
        "　　　　　　Equip Light Armor",
      ]],
    19 => # 陰陽剣士
      [[
        "Unique fencer with Tao-infused blades homes in on",
        "enemy weaknesses. A tactical job mixing offense and",
        "defense, it has access to both Sword and Taoism skills",
        "and learns element boosting abilities.",
      ],
      [
        "Weapons: Daggers　Swords　Scythes　Rods　Fans",
        "Skills: Daggers　Swords　Taoism",
        "Ability: Magic Counter 25%　Equip Light Armor",
        "",
      ]],
    20 => # 九字剣神
      [[
        "式神召喚の術と剣の技をミックスさせた魔剣士",
        "剣技をもって式神を召喚し、敵をまとめて討ち滅ぼす",
        "使用できる全体攻撃剣技は自然属性を網羅し、極めて強力",
        "属性を強化するアビリティも習得し、絶大な力を発揮する",
      ],
      [
        "装備武器：短剣　剣　魔導剣　刀　鎌　ロッド　扇",
        "スキル：短剣技　剣技　陰陽術",
        "アビリティ：魔法カウンター50%　軽装備可能",
        "",
      ]],
    22 => # 武道家
      [[
        "A fighter who makes use of his or her own body through punches",
        "and kicks. Especially adept at critical hits, counters, and",
        "using high agility to dodge attacks. Learns various unarmed",
        "skills, instant KO skills, and full body skills.",
      ],
      [
        "Weapons: Fists Clubs",
        "Skills: Unarmed",
        "Ability： Counter 25% Equip Gi",
        "",
      ]],
    23 => # 拳豪
      [[
        "Remarkable martial artist rewarded with a buffed counter rate,",
        "evasion, and critical hits after intense training. Techniques",
        "worthy of a Black Belt and even healing arts through sheer force",
        "of will become available.",
      ],
      [
        "Weapons: Fists Clubs",
        "Skills: Unarmed",
        "Ability: Counter 50%　Equip Gi",
        "",
      ]],
    26 => # 魔導拳士
      [[
        "Hybrid monk who fights with magic-infused fists. In addition",
        "to black magic, this oddly mixed class wields elemental punches",
        "that spell doom for foes weak in both body and mind. A special",
        "skill restores MP.",
      ],
      [
        "Weapons: Fists Clubs",
        "Skills: Unarmed Black Magic",
        "Ability: Magic Counter 25%　Equip Gi",
        "",
      ]],
    28 => # パラディン
      [[
        "Faithful monk specializing in self-defense.",
        "While decent in attack, most skills",
        "prioritize the party's safety and overall health via holy power,",
        "ranging from recovery to revival.",
      ],
      [
        "Weapons: Daggers Fists Clubs Staves",
        "Skills: Unarmed　White Magic　Holy",
        "Ability: Equip Gi",
        "",
      ]],
    30 => # バトルマスター
      [[
        "Undisputed master of sword and fist, this class mixes",
        "relentless punches and and countless slashes into a",
        "unique style backed by a handsome attack stat. However,",
        "the same cannot be said for magic.",
      ],
      [
        "Weapons: Daggers　Swords　Knight Swords　Rapiers　Spears",
        "　　　　　Heavy Spears　Fists　Axes Clubs Scythes Flails",
        "Skills: Daggers　Swords　Multiweapon　Unarmed",
        "Ability： Counter 25%　HP Regen 5% Great Defense",
        "　　　　　　Dual-Wield　Equip Heavy Armor",
        "",
      ]],
    33 => # 魔法使い
      [[
        "The first step for all magic-user jobs. Specializes in magic;",
        "extremely poor at physical combat. Low defense and health;",
        "weak to being hit. Learns basic Black Magic focusing on the",
        "three main elements.",
      ],
      [
        "Weapons: Daggers Rapiers Scythes Rods Grimoires",
        "Skills: Black Magic",
        "Ability: Equip Mage Clothing",
        "",
      ]],
    34 => # 黒魔導師
      [[
        "Magician walking down the path of black magic, taking great",
        "pride in learning stronger elemental magic bolstered by an",
        "equally strong magic stat. It goes without saying that they're",
        "not fit for physical combat.",
      ],
      [
        "Weapons: Daggers Rapiers Scythes Rods Grimoires",
        "Skills: Black Magic",
        "Ability: Equip Mage Clothing",
        "",
      ]],
    38 => # 時魔導師
      [[
        "Branch of the mage family that taps into time and space.",
        "Unfit for combat and more suited for support, ranging from",
        "hastening allies to stopping enemies in their tracks.",
        "Furthermore, warp magic can be learned for fast travel",
		"to previous locations.",
      ],
      [
        "Weapons: Daggers Rapiers Scythes Rods Grimoires",
        "Skills: Time Magic",
        "Ability: Equip Mage Clothing",
        "",
      ]],
    40 => # 召喚士
      [[
        "Sorcerer capable of calling forth magical beasts that",
        "attack or heal. Much stronger then bog-standard spells",
        "and has the MP cost to match, making it fitting",
        "for decisive blows but infeasible for constant casting.",
      ],
      [
        "Weapons: Daggers Rapiers Scythes Rods Grimoires",
        "Skills: Summoning",
        "Ability: Equip Mage Clothing",
        "",
      ]],
    42 => # 陰陽師
      [[
        "Unique school of magic hailing from the far East.",
        "Seemingly weak magic attacks inflict potentially",
        "crippling weaknesses on all enemies with a chance",
        "of status ailments.",
      ],
      [
        "Weapons: Daggers　Scythes　Rods Fans",
        "Skills: Taoism",
        "Ability: Equip Mage Clothing",
        "",
      ]],
    43 => # 天地陰陽師
      [[
        "修行を詰み、陰陽の術に磨きをかけた導師",
        "状態異常を伴う属性魔法で、複数の敵をまとめて滅する",
        "属性防御を下げる付加効果も非常に心強い",
        "敵を属性攻撃で畳み掛ける際、強大な力を発揮するだろう",
      ],
      [
        "装備武器：短剣　鎌　魔導剣　ロッド　扇",
        "スキル：陰陽術",
        "アビリティ：魔防具装備可能",
        "",
      ]],
    44 => # 僧侶
      [[
        "A pious monk who serves Ilias and specializes",
        "in healing magic. Invaluable on long trips",
        "for their ability to heal outside of combat. Not good",
        "at physical combat, although better than magic users.",
        "Learns support magic to assist the party.",
      ],
      [
        "Weapons: Clubs Whips Staves Grimoires",
        "Skills: White Magic",
        "Ability: Equip Mage Clothing",
        "",
      ]],
    45 => # 白魔導師
      [[
        "Hardworking priest promoted to a true mage after",
        "mastering the basics. Learns stronger recovery and",
        "support magic along with a few offensive Holy spells.",
        "An unwritten requirement for truly dedicated parties.",
      ],
      [
        "Weapons: Clubs Whips Staves Grimoires",
        "Skills: White Magic",
        "Ability: Equip Mage Clothing",
        "",
      ]],
    47 => # 賢者
      [[
        "Highly skilled dual-caster of both black and",
        "white magics. As a result, this class can fill either task",
        "or both, at the expense of vast amounts of MP. Also learns",
        "a few element boosting abilities.",
      ],
      [
        "Weapons: Daggers　Rapiers　Magic Swords　Clubs　Scythes　Whips",
        "　　　　　Staves Rods Fans Grimoires",
        "Skills: White Magic Black Magic",
        "Ability: MP Cost 75% Equip Mage Clothing",
        "",
      ]],
    48 => # 森羅万象士
      [[
        "様々な魔導を修め、万物の知識を携えた最上級魔導士",
        "あらゆる術技を用い、聖なる術や闇の術さえ使いこなす",
        "MP消費軽減の能力も極めて高く、強力な魔法を連続使用可能",
        "またMPを全て攻撃に費やす究極魔法を習得できる",
      ],
      [
        "装備武器：短剣　尖剣　魔導剣　棍　鎌　鞭　杖　ロッド",
        "　　　　　扇　魔導書",
        "スキル：白魔法　黒魔法　時魔法　召喚　聖技　闇技",
        "　　　　陰陽術",
        "アビリティ：MP消費1/2　魔防具装備可能",
        "",
      ]],
    52 => # 狩人
      [[
        "Experts with the bow an arrow, Hunters have extremely",
        "high accuracy and also learn elemental skills. Hunters",
        "live up to their name by learning skills",
        "especially effective against certain races.",
        "Their damage dealing is excellent, but their defense",
        "is less than a Warrior's.",
      ],
      [
        "Weapons: Daggers Sickles Bows Whips",
        "         Boomerangs",
        "Skills: Sickles Bows Whips Throwing",
        "Ability: Forest Boost Slayer Boost",
        "",
      ]],
    53 => # ボウマスター
      [[
        "Keen-eyed hunter after rigorous training. Learns skills",
        "that inflict severe damage to even more races, such as",
        "insects and alraunes. Shooting down whole groups of foes",
        "at once becomes child's play for this class. Defenses",
		"are still fragile, so do be careful.",
      ],
      [
        "Weapons: Daggers Sickles Bows Whips",
        "         Boomerangs",
        "Skills: Sickles Bows Whips Throwing",
        "Ability: Forest Boost Slayer Boost",
        "",
      ]],
    56 => # ガンナー
      [[
        "Dynamic sharpshooter that swaps the old for the",
        "new. No enemy can avoid the bullets, their speed",
        "dwarfing and downing Harpies and Succubi. Average",
        "attack stat aside, even healing ammo can be acquired.",
      ],
      [
        "Weapons: Guns",
        "Skills: Guns",
        "Ability: Slayer Boost",
        "",
      ]],
    59 => # 魔獣使い
      [[
        "Different kind of hunter that aims to tame monster",
        "girls. Paralyzing, binding, seducing, and overall",
        "subduing their will to attack is their speciality. The",
        "mere presence of a Demon Trainer attracts other monster",
		"girls to come along for the ride.",
      ],
      [
        "Weapons: Daggers　Scythes　Whips　Boomerangs",
        "Skills: Scythes Whips",
        "Ability: Recruit Rate *2　Slayer Boost",
        "",
      ]],
    62 => # シーフ
      [[
        "Thieves make their living by taking from others,",
        "including stealing items from enemies and opening",
        "treasure chests. Other than agility, their stats are",
        "very low. Despite being poor at combat, they learn",
        "many skills useful in an adventure.",
      ],
      [
        "Weapons: Daggers Sickles Whips Boomerangs",
        "Skills: Daggers Throwing　Thievery",
        "Abilities： Treasure Hunter 1",
        "           Preemptive Strike Up",
        "           Avoid Surprise Attacks",
        "",
      ]],
    63 => # マスターシーフ
      [[
        "Go-getting thief with enhanced thievery prowess.",
        "They can even steal HP and unlock green chests.",
        "More knife skills are acquired as well, but only as a",
        "last resort due to low fighting stats.",
      ],
      [
        "Weapons: Daggers　Scythes　Whips　Boomerangs",
        "Skills: Daggers　Throwing　Thievery",
        "Ability: Treasure Hunter 2 Avoid Surprise Attacks",
        "　　　　　　Preemptive Strike Up",
        "",
      ]],
    65 => # 忍者
      [[
        "Elusive assassin from the far East cloaked in darkness,",
        "severing lives swiftly and efficiently with Ninjutsu. Paired",
        "with dual-wielding, the attack options only grow. High",
        "evasion makes up for paper-thin defenses and low attack.",
      ],
      [
        "Weapons: Daggers　Ninja Swords　Scythes",
        "Skills: Ninjutsu",
        "Ability: Dual-Wield Equip Gi",
        "",
      ]],
    72 => # 兵士
      [[
        "Protects towns and castles. Your average Soldier.",
        "Learns skills to weaken and disable enemies. Average",
        "stats for a fighter-type, but bad with magic and not",
        "able to equip many types of weapons or armor.",
      ],
      [
        "Weapons: Daggers Swords Rapiers Spears Boomerangs",
        "Skills: Swords Spears",
        "Ability： City Boost Equip Light Armor",
        "",
      ]],
    73 => # 王宮騎士
      [[
        "Senior Soldier charged with protecting top VIPs",
        "and sites. Learns more skills to further weaken foes.",
        "Attack and defense stats are fit for the",
        "offensive and are further bulked by heavy equipment.",
      ],
      [
        "Weapons: Daggers Swords　Knight Swords　Rapiers　Spears",
        "　　　　　Heavy Spears Boomerangs",
        "Skills: Daggers Swords Rapiers Spears",
        "Ability: City Boost Equip Heavy Armor",
        "",
      ]],
    77 => # 正義のヒーロー
      [[
        "Strange masked soldier with a heart of justice.",
        "Stats are average all around but certain skills",
        "can only be used when transformed. Smite evildoers",
        "with all sorts of embarrassingly named attacks!",
      ],
      [
        "Weapons: Fists",
        "Skills: Unarmed Justice",
        "Ability: Strength in Solitude　Unyielding Fighting Spirit",
        "",
      ]],
    79 => # 商人
      [[
        "Traveling Salesmen enthusiastic about business.",
        "Increases the amount of gold acquired after battle.",
        "Not suited for combat, but nonetheless hearty and",
        "tenacious. Can purchase items in combat and use them",
        "immediately.",
      ],
      [
        "Weapons: Daggers Sickles Boomerangs　Abacuses",
        "Skills: Throwing Mercantile EX-Item",
        "Abilities： Gold Acquisition 1.5x",
        "           Medicine Knowledge 1",
        "",
      ]],
    80 => # 闇商人
      [[
        "Accomplished merchant with lucrative but dubious",
        "connections. Get party members out of a jam with",
        "swift under-the-table dealings. High defense",
        "aside, direct combat is not recommended. Better items",
		"can be bought too.",
      ],
      [
        "Weapons: Daggers　Scythes　Boomerangs　Abacuses",
        "Skills: Throwing Mercantile　EX-Item",
        "Ability: Gold Acquisition 2x　Medicine Knowledge 1",
        "",
      ]],
    82 => # アイテム士
      [[
        "Innovative user of many items and traveling",
        "faux-doctor for adventurers. The item's true",
        "essence is drawn out and divided across the party",
        "or reversed against foes. Learns boomerang skills but",
		"otherwise powerless.",
      ],
      [
        "Weapons: Daggers Boomerangs Abacuses",
        "Skills: Throwing Mercantile　EX-Item",
        "Ability: Medicine Knowledge 2",
        "",
      ]],
    84 => # 冒険家
      [[
        "Classic traveler of uncharted lands. Learns skills",
        "that'll lessen the stress and dangers of long journeys.",
        "Robust, adaptable, and won't mind fighting in",
        "harsh environments. Learns a few boomerang skills as well.",
      ],
      [
        "Weapons: Daggers　Ninja Swords　Scythes Bows Boomerangs",
        "Skills: Daggers　Throwing　Thievery　EX-Item",
        "Ability: Environmental Damage 50%　Desert Boost　Cave Boost",
        "",
      ]],
    86 => # 占い師
      [[
        "A soothsaying expert of mysterious forces.",
        "Uses tarot cards that bring out random effects.",
        "Physical stats are subpar but magic skills are passable.",
        "Besides tarot cards, many luck-based skills can be learned.",
      ],
      [
        "Weapons: Daggers Staves Rods Cards",
        "Skills: Oracle",
        "Ability: Item Acquisition 1.5x",
        "",
      ]],
    87 => # ギャンブラー
      [[
        "Edge-teetering soothsayer gambling with fate. Disrupt",
        "the flow of battle with random events.",
        "Lady Luck may either bless your friends or empower",
        "your foes, so don't push your luck and use with caution.",
      ],
      [
        "Weapon: Daggers　Staves　Rods　Cards",
        "Skills: Oracle",
        "Ability: Item Drop *2",
        "",
      ]],
    89 => # カードバトラー
      [[
        "Ex-fortune teller turned fulltime card battler.",
        "Each card drawn possesses magical power that may",
        "shuffle the tide of battle. Effects range from attack",
        "to recovery. Magic may be decent, but best suited for",
		"support.",
      ],
      [
        "Weapon: Daggers　Staves　Rods　Cards",
        "Skills: Oracle",
        "Ability: None",
        "",
      ]],
    92 => # 遊び人
      [[
        "A useless job, Flirts are inclined to goof off during",
        "battle. Not only are they poor in combat, they often",
        "interfere with other party members too. Learns singing",
        "and dancing skills, which may be useful in more advanced",
        "jobs...",
      ],
      [
        "Weapons: Fans Whips Boomerangs　Sex Toys",
        "Skills: Oracle Dancing Singing",
        "Ability: None",
        "",
      ]],
    93 => # 踊り子
      [[
        "Confound and disturb the hearts of both man and monster.",
        "Learn alluring and magical dances to buff one side and",
        "debilitate the other. Has high evasion and pics up a few fan",
        "skills but due to low attack they serve as a last resort only.",
      ],
      [
        "Weapons: Daggers　Rapiers　Whips　Fans",
        "Skills: Fans Dancing",
        "Ability: None",
        "",
      ]],
    95 => # 吟遊詩人
      [[
        "Vocalist whose songs shake the hearts of both man and",
        "monster. Alter the tone to awaken hidden abilities in",
        "allies. Excellent at support during drawn out battles",
        "but a poor fighter.",
      ],
      [
        "Weapons: Boomerangs　Harps",
        "Skill: Singing",
        "Ability: None",
        "",
      ]],
    97 => # 娼婦
      [[
        "Sexcraft specialist aiming to melt body and mind in pleasure.",
        "Inflict pleasure 'damage' with lewd skills that leave foes",
        "moist and quivering for more. While resistant against the same type",
        "of damage, don't expect anyone in this class to throw punches.",
      ],
      [
        "Weapons: Whips　Sex Toys",
        "Skills: Sexcraft",
        "Ability: Horny Strike 5%　Trance Strike 5%",
        "",
      ]],
    100 => # スーパースター
      [[
        "Singing, dancing, and all-around captivating idol. Distract",
        "the enemies with songs while the allies are encouraged",
        "by dances. Special stage skills can be learned as well.",
        "Support capabilities are virtually peerless.",
      ],
      [
        "Weapons: Daggers　Rapiers　Whips　Harps　Fans",
        "Skills: Fans Dancing Singing",
        "Ability: Seduction Strike 20%",
        "",
      ]],
    101 => # バトルファッカー
      [[
        "Lewd fighter who incorporates sex acts into battle. The foe's",
        "privates are erotically tortured by hands, feet, and other body",
        "parts. Apart from greater resistance against pleasure-based attacks,",
        "new abilities increase the odds of addling foes into a rapturous stupor.",
      ],
      [
        "Weapons: Whips Fists Sex Toys",
        "Skills: Whips　Unarmed　Sexcraft",
        "Ability: Horny Strike 5%　Trance Strike 5%",
        "",
      ]],
    103 => # 学者
      [[
        "Ambitious student on the pursuit of truth.",
        "Utilizes a new form of magic to fend off enemies.",
        "This type of magic uses SP as opposed to MP, making",
        "it a versatile skillset useful in future jobs.",
      ],
      [
        "Weapons： Rods　Scalpels　Grimoires　Guns",
        "Skills： Magic Science　Alchemy　Grimoire",
        "Ability: None",
        "",
      ]],
    104 => # 魔導学者
      [[
        "Scientist fully immersed in the next level of magic science,",
        "mixing and matching various compounds to wreak havoc upon Dolls",
        "and other artificial monsters. The conversion rate between SP and",
        "MP has increased as well.",
      ],
      [
        "Weapons: Rods　Scalpels　Grimoires　Guns",
        "Skills: Magic Science　Alchemy　Grimoire",
        "Ability: None",
        "",
      ]],
    106 => # 錬金術士
      [[
        "Mystifying scholars that can make items from nothing.",
        "During combat, items can be transmuted by sacrificing",
        "SP. Even attack items can be made on the fly. Definitely",
        "an invaluable member, with proper SP support.",
      ],
      [
        "Weapons: Daggers Staves　Rods　Grimoires",
        "Skills: Magic Science　Alchemy　Grimoire",
        "Ability: None",
        "",
      ]],
    108 => # 魔導司書
      [[
        "Scholar and researcher of magical books. By sacrificing a page",
        "of the grimoire, a powerful phenomenon occurs at",
        "no extra cost. Besides the basic elements, the pages",
        "contain spells for every occasion...if you have enough to spare.",
      ],
      [
        "Weapons: Staves　Rods　Grimoires",
        "Skills: Magic Science　Alchemy　Grimoire",
        "Ability: None",
        "",
      ]],
    110 => # 技師
      [[
        "Job that uses cutting-edge weaponry to dispatch",
        "whole swaths of enemies. Despite the boost",
        "in SP its general status still falls short",
        "of the more traditional warrior-based jobs.",
      ],
      [
        "Weapons: Daggers　Clubs　Guns",
        "Skills: Machines",
        "Ability: None",
        "",
      ]],
    111 => # マキナマイスター
      [[
        "Advanced engineer skilled with higher-grade tech,",
        "wielding their destructive power in the heat of battle.",
        "Some machines are designed to explicitly mow down",
        "certain types of enemies, while others are aligned",
		"towards self-defense.",
      ],
      [
        "Weapons: Daggers　Clubs　Guns",
        "Skills: Machines",
        "Ability: None",
        "",
      ]],
    113 => # 魔芸師
      [[
        "Novice necromancer who seeks mastery of the",
        "three arts. Learns a few fledgling skills of each",
        "school and armed with high magic stats. As a branch",
        "of the Summoning arts, this job must be mastered",
		"in order to settle into a true profession.",
      ],
      [
        "Weapons: Scythes　Rods　Whips　Grimoires",
        "Skills: Scythes　Summoning",
        "Ability: Equip Magic Armor",
        "",
      ]],
    114 => # ネクロマンサー
      [[
        "Unique summoner that turns corpses into minions fuelled",
        "by life. Countless experiments with many bodies indirectly",
        "allows for the dubious use of Medicine skills as well. Juggle",
        "syringes and impromptu graverobbing effectively for complete",
		"reliability.",
      ],
      [
        "Weapons: Scythes　Rods　Whips　Scalpels　Grimoires",
        "Skills: Scythes Summoning Medicine Corpse",
        "Ability: Equip Mage Clothing",
        "",
      ]],
    116 => # 降霊術師
      [[
        "Unique summoner that calls ghosts from the afterlife lured by",
        "mana. With a few nibbles of the Medium's MP, they'll fight",
        "alongside with the party and even impart life in return. Black Magic",
        "is a less costly alternative, provided that there's MP to spare.",
      ],
      [
        "Weapons: Scythes Staves Rods　Grimoires",
        "Skills: Scythes Black Magic Summoning Corpse",
        "Ability: Equip Mage Clothing",
        "",
      ]],
    118 => # からくり人形師
      [[
        "Unique summoner that controls dolls built from scratch with",
        "great care. Controlling the dolls takes neither magic nor life,",
        "but very high concentration to perform well. Ergo, Machines",
        "serve as a viable backup.",
      ],
      [
        "Weapons: Scythes Rods Grimoires Guns",
        "Skills: Scythes Summoning Machines Artificial",
        "Ability: Equip Mage Clothing",
        "",
      ]],
    120 => # 情報屋
      [[
        "Words become weapons in this unorthodox job.",
        "Distract the enemy with stories and idle gossip.",
        "Despite subpar efforts in both forms of combat,",
        "this class is invaluable for gathering more allies.",
      ],
      [
        "Weapons: Daggers Rapiers Boomerangs Guns",
        "Skills: Throwing Talk",
        "Ability: None",
        "",
      ]],
    121 => # 話術士
      [[
        "Master wordsmith who fights without throwing a punch.",
        "Suave fast-talking can coax money and items from foes.",
        "Failing that, colorful phrases can induce abnormal status.",
        "Not fit for fighting and would prefer to use words as weapons.",
      ],
      [
        "Weapons: Daggers　Rapiers　Boomerangs　Guns",
        "Skills: Throwing Talk",
        "Ability: None",
        "",
      ]],
    123 => # 料理人
      [[
        "Devoted foodie in pursuit of unique recipes.",
        "Skilled hands and a passionate heart craft splendid",
        "meals in the heat of battle, buffing allies and",
        "smiting foes. Completed dishes are stored in the",
        "inventory.",
      ],
      [
        "Weapons: Daggers　Scythes　Kitchen Knives",
        "Skills: Daggers　Cooking",
        "Ability: None",
        "",
      ]],
    124 => # トリプルコック
      [[
        "Master chef capable of whipping out divine meals.",
        "The recipe list is expanded with cuisines",
        "that dish out spectacular effects on the tongue",
        "and battlefield. Kitchen knives are handy in a pinch,",
		"but are unreliable compared to real weapons.",
      ],
      [
        "Weapons: Daggers　Scythes　Kitchen Knives",
        "Skills: Daggers Cooking",
        "Ability: None",
        "",
      ]],
    126 => # ナース
      [[
        "Assistant doctor armed with basic first aid.",
        "Mend wounds, inoculate against status ailments,",
        "and improve general health with skills based on SP.",
        "Speed and dexterity are decent, but subpar for the",
        "front lines.",
      ],
      [
        "Weapons: Staves　Scalpels",
        "Skills: Daggers　Medicine",
        "Ability: None",
        "",
      ]],
    127 => # 医者
      [[
        "Accomplished battle physician fully loaded with the basics.",
        "Mends wounds without the use of items or magic.",
        "Even resuscitation is possible without using a hint of mana.",
        "Overall, an acceptable substitute for White Mages when",
		"MP support is low.",
      ],
      [
        "Weapons: Staves Scalpels",
        "Skills: Daggers Medicine",
        "Ability: None",
        "",
      ]],
    129 => # メイド
      [[
        "Dutifully performs household tasks with",
        "utmost care. Improvises housekeeping skills for",
        "combat to support allies and cripple enemies.",
        "Uses special skills to eliminate pesky bugs and",
        "weeds.",
      ],
      [
        "Weapons: Fans　Whips　Plates　Sex Toys",
        "Skills: Whips Service",
        "Ability: None",
        "",
      ]],
    130 => # マスターメイド
      [[
        "An expert houseservent that provides service without delay.",
        "In addition to keeping allies cozy, maids of this",
        "calibur can jump into the fray with secret self-defense",
        "techniques. Also obtains an ability that boosts job EXP acquisition.",
      ],
      [
        "Weapons: Fans　Whips　Plates　Sex Toys",
        "Skills: Whips Service",
        "Ability: None",
        "",
      ]],
    134 => # 貴族
      [[
        "Members of the nobility who appear on the battlefield",
        "to fulfil the obligations that accompany their high-born",
        "status. Use rapiers and rapier skills along with skills",
        "to increase XP and recover HP automatically. Good in",
        "combat with overall high stats.",
      ],
      [
        "Weapons: Daggers Rapiers Bows",
        "Skills: Daggers Rapiers Ruling",
        "Ability: Recover 5% HP per turn",
        "",
      ]],
    135 => # 王
      [[
        "Unequalled ruler of an entire country.",
        "Capable of taking control of the battlefield while",
        "fighting on the front lines. Fierce with a sword imbued with",
        "secret techniques. Heavy equipment can also even the odds.",
      ],
      [
        "Weapons: Daggers　Swords　Knight Swords　Rapiers　Spears",
		"　　　　　Heavy Spears　Bows",
        "Skills: Daggers　Swords　Rapiers　Ruling",
        "Ability: HP Regen 10%　Equip Heavy Armor",
        "",
      ]],
    138 => # 法王
      [[
        "Traveling founder preaching the good word across",
        "the world. Dutiful prayers call upon miracles to heal allies",
        "and smite enemies at the Goddess' behest.",
        "Good tidings shall come to those who bring a Pope along.",
      ],
      [
        "Weapons: Daggers　Magic Swords　Clubs　Staves　Grimoires",
        "Skills: White Magic　Holy　Ruling",
        "Ability: Magic Reflect 30%　Equip Mage Clothing",
        "",
      ]],
    141 => # 見習い勇者
      [[
        "A hero-in-training who has not received the blessing of",
        "the Goddess. Aims to be a true hero; wields a sword but",
        "without experience. Average stats; poor at magic. Has",
        "personal sword skills and divine protection.",
      ],
      [
        "Weapons: Daggers Swords Rapiers Spears Axes Clubs Scythes",
        "         Boomerangs",
        "Skills: Daggers Swords Heroism",
        "Ability: Equip Light Armor",
        "",
      ]],
    142 => # 勇者
      [[
        "A genuine hero blessed by the Goddess Ilias. Few",
        "in number, these sanctified warriors purge spirits",
        "and demons with blazing techniques, reducing them",
        "to ashes. Many stats are well above average and",
		"worthy of the title.",
      ],
      [
        "Weapons: Daggers Swords Knight Swords Rapiers Spears",
        "　　　　　Axes Clubs Scythes Boomerangs",
        "Skills: Daggers Swords Heroism",
        "Ability: SP Regen 10%　Equip Heavy Armor",
        "",
      ]],
    149 => # 無職
      [[
        "Unemployed bum with no job.",
        "There are no advantages or skills associated",
        "with being unemployed.",
        "Mastering it does nothing either.",
      ],
      [
        "Weapons: Daggers",
        "Skills: None",
        "Ability: None",
        "",
      ]],
    151 => # 人間
      [[
        "A pure, commonplace human. Can use the [Talk]",
        "skill in any job. Armor that can be equipped depends",
        "on the individual. Humans learn many skills",
        "related to experience point acquisition.",
      ],
      [
        "Armor: Character-dependent",
        "Skills: Talk",
        "Ability: None",
        "",
      ]],
    152 => # 魔人
      [[
        "人の血を引きながら、闇の力を覚醒させた特殊な存在",
        "闇の技を使用することが出来るほか、時をも操作できる",
        "魔の力と相性が良い鎌を得意武器とし、専用スキルを習得",
        "能力値も極めて高く、あらゆる局面で活躍できる",
      ],
      [
        "装備防具：キャラ依存",
        "スキル：鎌技　時魔法　聖技　闇技",
        "アビリティ：闇の契約",
        "",
      ]],
    153 => # 魔神
      [[
        "堕天使の血脈を発現させた魔人で、その力は神にも近い",
        "強力な闇技や時魔法を習得し、時空の運行をも支配する",
        "他にも、非常に強力なアビリティを習得可能",
        "能力値も圧倒的で、修羅のような戦い振りを見せるだろう",
      ],
      [
        "装備防具：キャラ依存",
        "スキル：鎌技　時魔法　聖技　闇技",
        "アビリティ：闇の支配者",
        "",
      ]],
    155 => # ワームサマナー
      [[
        "自身の肉体とホムンクルスを一体化させた魔導士",
        "その細胞はホムンクルスと結合し、もはや人とは呼べない",
        "触手器官での攻撃技や、体力吸収技などを習得可能",
        "また、戦闘中にMPが自然回復していく特技を持つ",
      ],
      [
        "Armor: Clothes Breastplates Robes Dresses Skimpy Hats",
        "　　　　　Magic Hats Bucklers",
        "Skills: Black Magic Summoning Slime Tentacles",
        "Ability: MP Regen +1%",
        "",
      ]],
    158 => # 妖魔
      [[
        "The monster race with the highest magical power and",
        "intelligence. Yoma are strong and utilize magnificent",
        "rapier skills. Their magical prowess is often put to",
        "use in fire magic, roasting their enemies alive. They",
        "wear heavy armor and have no particular weaknesses.",
      ],
      [
        "Armor: Clothes Armor Heavy Armor Robes",
        "       Dresses Skimpy Hats Helmets Heavy Helmets",
        "       Fancy Caps Bucklers Shields",
        "       Heavy Shields",
        "Skills: Rapiers　Black Magic　Dark　Demon Arts",
        "Ability: Rapier Booster",
        "",
      ]],
    159 => # 上級妖魔
      [[
        "妖魔の中でも、上位の血統にあたる種族",
        "尖剣技や炎魔法にも磨きをかけ、高い戦闘能力を誇る",
        "より有用な魔眼を習得し、攻めの手数は極めて多い",
        "あらゆる状況で有利に戦える、万能の魔物である",
      ],
      [
        "Armor: Clothes Armor Heavy Armor Robes Dresses Skimpy",
        "　　　　　Hats Helmets Heavy Helmets Fancy Caps Bucklers",
        "　　　　　Shields Heavy Shields",
        "Skills: Rapiers Black Magic Dark Demon Arts",
        "Ability: Rapier Booster",
        "",
      ]],
    160 => # 妖魔貴族
      [[
        "高貴な血統を誇る最上級の妖魔",
        "その魔力は絶大で、いかなる敵をも灰燼と化す",
        "尖剣の腕前も凄まじく、妖魔貴族に伝わる奥義を修得",
        "能力値も極めて高く、破格の強さで活躍できるだろう",
      ],
      [
        "装備防具：服　鎧　重鎧　ローブ　ドレス　薄着",
        "　　　　　帽子　兜　 重兜　高級帽　軽盾　盾",
        "　　　　　重盾",
        "スキル：尖剣技　黒魔法　闇技　魔技",
        "アビリティ：尖剣強化",
        "",
      ]],
    161 => # 聖魔
      [[
        "突然変異により聖なる力を身につけた異色の妖魔",
        "白魔法が使用可能な他、聖属性の攻撃魔法を覚える",
        "仲間を回復させる癒しの魔眼を習得し、癒しの力を完備",
        "妖魔に比べて攻撃力は劣るが、魔法は極めて強力である",
      ],
      [
        "Armor: Clothes Armor Robes Dresses Skimpy",
        "       Hats Helmets Magic Hats Fancy Caps Bucklers Shields",
        "Skills: Rapiers　White Magic　Black Magic　Holy　Dark",
		"       Demon Arts",
        "Ability: None",
        "",
      ]],
    163 => # 半獣妖魔
      [[
        "下半身が魔獣の姿となっている妖魔の亜種",
        "魔獣部分の肉体能力は極めて高く、爪や牙で敵を引き裂く",
        "また妖魔としての魔力も高く、氷の魔法を得意とする",
        "攻撃面において万能の働きを見せる、頼もしい種族",
      ],
      [
        "Armor: Clothes Breastplates Armor Robes Dresses Skimpy",
        "　　　　　Hats　Helmets　Fancy Caps　Bucklers　Shields",
        "Skills: Rapiers　Black Magic　Dark　Demon Arts　Beast",
        "Ability: Equip Fangs　Rumble",
        "",
      ]],
    167 => # 亜人
      [[
        "Monster girls resembling fallen humans. Aside from",
        "HP and magic, their states are mostly identical to",
        "Draining hair, frisky tongue, and oriental ice magic",
        "sets them apart. A similar build to humans allows for",
        "similar equipment.",
      ],
      [
        "Armor: Clothes　Gi　Breastplates　Armor　Dresses",
        "     Skimpy Hats　Helmets　Bucklers　Shields",
        "Skills: Scythes Taoism Demon Arts",
        "Ability: Scythe Booster",
        "",
      ]],
    168 => # 妖怪
      [[
        "亜人よりも魔力を高めた、もののけとも呼ばれる魔物",
        "東方に多く生息し、人間と共存している事も多い",
        "髪や舌を武器として使うほか、氷の魔術も得意",
        "物理でも魔法でもそこそこ戦える、便利な種族",
      ],
      [
        "Armor: Clothes Gi Breastplates Armor Dresses",
        "　　　　　Skimpy Hats Helmets Bucklers Shields",
        "Skills: Scythes Taoism Demon Arts",
        "Ability: SP Cost 75%　Scythe Booster",
        "",
      ]],
    170 => # 妖鬼
      [[
        "妖怪の一種で、剛力が特徴の「鬼」と呼ばれる種族",
        "棍技を得意とし、破壊力の高いスキルを習得可能",
        "氷属性の技や全体技も覚え、物理技には不自由しない",
        "攻撃力も防御力も高い反面、魔法や快楽には弱い",
      ],
      [
        "Armor: Clothes Gi Breastplates Armor Heavy Armor",
        "　　　　Dresses Skimpy Hats Helmets Heavy Helmets",
		"     Bucklers Shields Heavy Shields",
        "Skills: Axes Clubs Demon Arts",
        "Ability: Battle Start SP Up",
        "",
      ]],
    175 => # インプ
      [[
        "Small demons who subsist on human semen; not quite",
        "skilled enough yet to be called succubi. Imps use",
        "pleasure attacks, drowning their enemies in bliss.",
        "They specialize in wind techniques, but are otherwise",
        "poor fighters.",
      ],
      [
        "Armor: Clothes Robes Dresses Skimpy Hats Magic Hats",
        "       Fancy Caps Bucklers",
        "Skills: Black Magic　Sexcraft　Demon Arts　Nature",
        "Abilities： Horny Strike 5%",
        "           Trance Strike 5%",
        "           Equip Sex Toys",
        "",
      ]],
    176 => # サキュバス
      [[
        "性技が熟練し、一人前のサキュバスとなった淫魔",
        "高い威力を誇る快楽スキルの数々で、敵の戦意を奪う",
        "また魔力が高く、魔法使いとして活躍する事も可能",
        "やはり攻撃力や防御力は低く、直接戦闘は苦手である",
      ],
      [
        "Armor: Clothes Robes Dresses Skimpy Hats",
        "       Magic Hats Fancy Caps Bucklers",
        "Skills: Black Magic　Sexcraft　Demon Arts　Nature",
        "Ability: Equip Sex Toys　Horny Strike 5%",
        "　　　　　　Trance Strike 5%　Seduction Strike 5%",
        "",
      ]],
    178 => # モンクサキュバス
      [[
        "肉体を磨き、闘士として生きる珍しい淫魔",
        "淫魔種でありながら攻撃力が高く、攻め手として活躍する",
        "気を込めたビンタや、流れるような愛撫技を習得可能",
        "敵の乳を搾る特殊技や、快楽に耐える防御スキルも覚える",
      ],
      [
        "Armor: Clothes Gi Robes Dresses Skimpy Hats",
        "　　　　　Fancy Caps",
        "Skills: Unarmed Sexcraft Demon Arts Nature",
        "Ability: Equip Sex Toys Horny Strike 5%",
        "　　　　　　Trance Strike 5%",
      ]],
    180 => # ウィッチサキュバス
      [[
        "魔力を高め、淫らな魔術を習得したサキュバスの魔導師",
        "珍しい快楽魔法や、快楽状態異常を起こす魔眼も習得可能",
        "風の魔法も覚えるほか、通常の黒魔法も使用できる",
        "魔導師として一流だが、防御には難があるので注意",
      ],
      [
        "Armor: Clothes Robes Dresses Skimpy Hats",
        "　　　　　Magic Hats Fancy Caps",
        "Skills: Black Magic Summoning Sexcraft Demon Arts Nature",
        "Ability: Equip Sex Toys Horny Strike 5%",
        "　　　　　　Trance Strike 5%",
      ]],
    184 => # ヴァンパイア
      [[
        "Nocturnal monster girl that feeds on blood.",
        "Boasting strong bodies and even stronger magic,",
        "they can absorb HP and more via bloodsucking.",
        "Daggers are at their deadliest in their hands.",
      ],
      [
        "Armor: Clothes　Armor　Heavy Armor　Robes　Dresses Hats　Helmets",
        "      Heavy Helmets　Fancy Caps Bucklers　Shields　Heavy Shields",
        "Skills: Daggers　Black Magic　Dark　Demon Arts",
        "Ability: Equip Fangs　Dagger Booster",
        "",
      ]],
    185 => # ノスフェラトゥ
      [[
        "大量の血を吸い、さらに力を高めた吸血鬼",
        "短剣の扱いにも磨きを掛け、強力な技を習得可能",
        "その吸血技は、敵のHPのみならずMPまで吸収する",
        "吸収技を駆使すれば、回復なしで戦い続ける事も可能",
      ],
      [
        "Armor: Clothes　Armor　Heavy Armor　Robes　Dresses Hats　Helmets",
        "      Heavy Helmets　Fancy Caps Bucklers　Shields　Heavy Shields",
        "Skills: Daggers　Black Magic　Dark",
		"     Demon Arts",
        "Ability: Equip Fangs　Dagger Booster",
      ]],
    187 => # マージヴァンパイア
      [[
        "様々な魔法を習得した魔導士タイプのヴァンパイア",
        "高い魔力により、様々な全体属性術を使いこなす",
        "また魔眼を修得し、敵に状態異常をもたらす事も可能",
        "魔導師タイプとしては防御力が高く、非常に頼りになる",
      ],
      [
        "Armor: Clothes Armor Robes Dresses Hats Helmets Magic Hats",
        "　　　　　Fancy Caps Bucklers Shields",
        "Skills: Daggers Black Magic Summoning Dark Demon Arts",
        "Ability: Equip Fangs　Dagger Booster",
        "",
      ]],
    194 => # マーメイド
      [[
        "Beautiful monster girl with a lower fish body.",
        "Controls water at will to attack enemies and",
        "heal allies. Despite their weak bodies, spells",
        "and songs alike make up for their physical shortcomings.",
      ],
      [
        "Armor: Clothes Breastplates　Robes　Hats　Magic Hats　Fancy Caps",
        "       Bucklers",
        "Skills: White Magic　Black Magic　Singing　Ocean",
        "Ability: Sleep Strike 5%　Sea Strength　Heal Booster",
        "",
      ]],
    195 => # ハイマーメイド
      [[
        "より強い力を持った、位の高いマーメイド",
        "その魔力で大海嘯を呼び、敵の群れを押し流す",
        "水魔法や癒しの術、波を呼ぶ歌などを習得可能",
        "魔力が高く、魔導師として活躍できるだろう",
      ],
      [
        "Armor: Clothes Breastplates　Robes　Hats　Magic Hats　Fancy Caps",
        "       Bucklers",
        "Skills: White Magic　Black Magic　Singing　Ocean",
        "Ability: Sleep Strike 5%　Sea Strength　Heal Booster",
        "",
      ]],
    199 => # 行商マーメイド
      [[
        "人間に友好的であり、商売を営んでいる人魚",
        "特別なルートで仕入れた商品は、人間の町でも評判が良い",
        "金銭に関わるスキルを覚え、冒険をサポートする",
        "生存性以外の能力は低いので、戦闘向きではない",
      ],
      [
        "Armor: Clothes Breastplates　Robes　Hats　Magic Hats　Fancy Caps",
        "       Bucklers",
        "Skills: White Magic　Mercantile　Singing　Ocean",
        "Ability: Sleep Strike 5%　Gold Acquisition 2x",
        "　　　　　　Sea Strength",
      ]],
    203 => # エルフ
      [[
        "De facto forest guardians resembling humans,",
        "they pride themselves on always hitting their",
        "mark. Unfortunately, despite natural buffers",
        "against status ailments they're rather weak",
		"to pleasure.",
      ],
      [
        "Armor: Clothes Gi Robes Dresses　Skimpy Hats",
        "　　　　　Fancy Caps",
        "Skills: Bows　Sexcraft　Demon Arts　Nature",
        "Ability: Forest Strength　Slayer Boost",
        "",
      ]],
    204 => # ハイエルフ
      [[
        "高い能力を擁するエルフ族のエリート",
        "弓の腕前も極めて高く、強力な弓技を修得",
        "また敵を麻痺させる矢や、眠らせる矢も発射可能",
        "淫技も複数を習得し、手数はかなり広い",
      ],
      [
        "Armor: Clothes Gi Robes Dresses　Skimpy Hats",
        "　　　　　Fancy Caps",
        "Skills: Bows　Sexcraft　Demon Arts　Nature",
        "Ability: Forest Strength　Slayer Boost",
        "",
      ]],
    206 => # フォレストエルフ
      [[
        "自然の力を操る事のできるエルフ",
        "元来エルフは妖精と近縁であり、自然との感応が可能",
        "その感応力が特に強く、自然現象を自在に引き起こす",
        "また、森と交信して癒しの力を引き出す事もできる",
      ],
      [
        "Armor: Clothes　Gi　Robes　Dresses　Skimpy　Hats",
        "　　　　　Magic Hats　Fancy Caps",
        "Skills: Bows　Sexcraft　White Magic　Demon Arts　Plants　Nature",
        "Ability: 森超強化",
        "",
      ]],
    208 => # ダークエルフ
      [[
        "悪の心に染まり、闇に堕ちたエルフ",
        "より戦闘的になり、弓を剣に持ち替えて敵を討つ",
        "また魔力も増大し、触手器官を召喚する事も可能",
        "防御はやや低いが、物理と魔法の両方を使いこなす",
      ],
      [
        "Armor: Clothes　Gi　Armor　Robes　Dresses　Skimpy　Hats",
        "　　　　　Helmets Magic Hats Fancy Caps",
		"      Bucklers Shields",
        "Skills: Swords　Black Magic　Dark　Sexcraft　Demon Arts",
        "　　　　　Tentacles Nature",
        "Ability: Forest Strength",
        "",
      ]],
    210 => # デュラハン
      [[
        "首が分離できる騎士系妖魔で、エルフと近縁にある",
        "剣の腕前は卓越し、強力な剣技スキルを修得可能",
        "さらに魔法剣を使用でき、刃の切れ味を魔力で倍加させる",
        "また、胴体と頭を分離させ二回行動する固有技を覚える",
      ],
      [
        "Armor: Clothes　Gi　Armor　Heavy Armor　Robes　Dresses",
        "　　　　　Skimpy　Hats　Helmets　Heavy Helmets　Fancy Caps",
        "　　　　　Bucklers　Shields　Heavy Shields",
        "Skills: Swords　Magic Swords　Demon Arts",
        "Ability: None",
        "",
      ]],
    214 => # フェアリー
      [[
        "Playful forest-dwellers resembling humans.",
        "Though mostly powerless, their alignment with",
        "nature calls forth natural forces to attack",
        "and heal. High evasion and magic mitigates",
		"their pitiful defenses."
      ],
      [
        "Armor: Robes　Fancy Caps",
        "Skills: White Magic Black Magic Dancing Nature",
        "Ability: MP Regen +1%",
        "",
      ]],
    215 => # 風精
      [[
        "風との感応力を増した上位フェアリー",
        "自然への感応力により、魔法の力はさらに高まっている",
        "癒しの技や、竜巻を呼び起こす踊りも習得可能",
        "やはり防御面では脆弱で、直接戦闘は苦手なのに注意",
      ],
      [
        "Armor: Robes　Fancy Caps",
        "Skills: White Magic　Black Magic　Dancing　Nature",
        "Ability: MP Regen +2%",
        "",
      ]],
    217 => # 土精
      [[
        "土との感応力を増した上位フェアリー",
        "大地のパワーで、攻撃力や防御力が格段に向上",
        "斧や棍を使いこなし、直接戦闘に向く",
        "しかし魔力は低く、魔法はあまり期待できない",
      ],
      [
        "Armor: Clothes Gi Breastplates Armor Hats Helmets",
        "　　　　　Bucklers　Shields",
        "Skills: Axes Clubs Dancing Nature",
        "Ability: Battle Start SP Up",
        "",
      ]],
    219 => # ダークフェアリー
      [[
        "魔素を蓄え、心を闇に染めたフェアリー",
        "自然感応の力は、より攻撃的な現象を引き起こす",
        "また悪い遊びにも手を染め、ギャンブルを愛好",
        "さらに幻獣を召喚し、使役する能力を備えている",
      ],
      [
        "Armor: Robes　Fancy Caps",
        "Skills: White Magic　Black Magic　Summoning　Dark",
        "　　　　Dancing　Oracle　Nature",
        "Ability: MP Regen +1%　Item Drop *2",
        "",
      ]],
    223 => # スライム
      [[
        "A monster composed entirely of slime. Besides",
        "using their slimy bodies as a weapon, they're proficient",
        "with boomerangs. They can heal allies with slime too.",
        "Their bodies are resistant to physical attacks, but",
        "susceptible to magic.",
      ],
      [
        "Armor: Shells Robes Fancy Caps",
        "Skills: Throwing　Slime",
        "Ability： Slime Strike 10%",
        "",
      ]],
    224 => # メガスライム
      [[
        "分裂も可能になった上位のスライム系モンスター",
        "自身の体を武器とし、粘液の体でダメージを与える",
        "投擲技も習得し、敵全体をブーメランで攻撃可能",
        "やはり魔法は非常に苦手で、属性攻撃に脆い",
      ],
      [
        "Armor: Shells Robes Fancy Caps",
        "Skills: Throwing　Slime",
        "Ability: Slime Strike 20%　Boomerang Booster",
        "",
      ]],
    226 => # 癒しのスライム
      [[
        "他者の体を癒す事のできる心優しいスライム",
        "粘液によって他者の代謝を活性化させ、傷を癒やす",
        "他にもスライムを盾にするなど、補助技を習得",
        "攻撃役としては頼りないが、回復や補助は一流である",
      ],
      [
        "Armor: Shells Robes Fancy Caps",
        "Skills: White Magic　Throwing　Slime",
        "Ability: Slime Strike 20%　Boomerang Booster",
        "",
      ]],
    228 => # 肉食スライム
      [[
        "その粘液に消化作用を帯びた、肉食のスライム",
        "相手を包んで捕食する、強力な消化技を使用する",
        "また敵を消化しやすくするブーメラン技も使用可能",
        "カウンターや自爆など、攻撃技を多く習得できる",
      ],
      [
        "Armor: Shells Robes Fancy Caps",
        "Skills: Throwing　Slime",
        "Ability: Digestion Strike 10%　Boomerang Booster",
        "",
      ]],
    232 => # 魔獣
      [[
        "A type of monster with pronounced animal features.",
        "Beasts are fast and tear at their enemies with fang",
        "and claw. Their attack power, agility, and evasion",
        "are excellent, but their defense is low, including",
        "against pleasure. They specialize in attacking.",
      ],
      [
        "Armor: Breastplates Fancy Caps",
        "Skills: Beast",
        "Abilities： Equip Fang",
        "           Counter 25%",
        "",
      ]],
    233 => # ルナティックビースト
      [[
        "より強靱な力を持った獣系のモンスター",
        "感情の赴くがままに暴れ回り、獲物の体を引き裂く",
        "パワーに優れる分、瞬発力はあまり高くない",
        "理性を失い、その肉体能力をさらに強化する事が可能",
      ],
      [
        "Armor: Breastplates Fancy Caps",
        "Skills: Beast",
        "Ability: Equip Fang　Counter 25%",
        "",
      ]],
    235 => # スピードビースト
      [[
        "スピードに長けた俊足の魔獣",
        "圧倒的な速度を活かした連続攻撃で敵を仕留める",
        "また回避率にも優れ、敵の攻撃力を高確率で回避",
        "その素早い身のこなしは、盗賊技にも向く",
      ],
      [
        "Armor: Breastplates Fancy Caps",
        "Skills: Thievery　Beast",
        "Ability: Equip Fang　Blind Strike 10%",
        "　　　　　　Counter 50%",
        "",
      ]],
    237 => # ミノタウロス
      [[
        "猛牛のパワーを備えた剛力モンスター",
        "斧の扱いを得意とし、怪力で大ダメージを与える",
        "防御力は高いが、素早さや魔法防御に劣る戦士タイプ",
        "肉弾戦担当として、大いに活躍するだろう",
      ],
      [
        "Armor: Gi　Breastplates　Hats　Fancy Caps",
        "Skills: Axes　Clubs　Flails　Beast",
        "Ability: None",
        "",
      ]],
    239 => # ケンタウロス
      [[
        "下半身が馬となっている、俊足のモンスター",
        "その脚力は卓越した速度をもたらし、高い戦闘能力を誇る",
        "槍技を得意とし、脚力を活かした突進技などを習得可能",
        "防御力はやや低いが、回避率の高さでカバーする",
      ],
      [
        "Armor: Gi Breastplates Armor Hats Helmets Fancy Caps",
        "　　　　　Bucklers　Shields",
        "Skills: Rapiers　Spears　Beast",
        "Ability: None",
        "",
      ]],
    245 => # 妖狐
      [[
        "Mysterious and mischievous fox girl. Makes for",
        "a decent magician with an adequate magic stat and",
        "mystical far East spells. Learns a wide array of fluffy",
        "pleasure skills in addition to earth spells.",
      ],
      [
        "Armor: Clothes Gi Breastplates Armor Robes",
        "　　　　　Dresses Skimpy　Hats　Helmets　Magic Hats",
		"      Fancy Caps　Bucklers　Shields",
        "Skills: Fans　Black Magic　Taoism　Ninjutsu　Beast",
		"       Nature",
        "Ability: SP Regen +5%　Fan Booster",
        "",
      ]],
    246 => # 中級妖狐
      [[
        "修行を積み、より高い霊性を蓄えた妖狐",
        "魔力が高く、特徴的な尻尾を用いた攻撃も得意",
        "修得できる陰陽術や忍術も、戦闘的なものとなった",
        "属性や状態異常耐性も高く、頼りになる種族である",
      ],
      [
        "Armor: Clothes　Gi　Breastplates　Armor　Robes　Dresses　Skimpy",
        "　　　　　Hats Helmets Magic Hats Fancy Caps",
		"　　　　　Bucklers　Shields",
        "Skills: Fans Black Magic Taoism Ninjutsu Beast Nature",
        "Ability: SP Regen +5%　Fan Booster",
        "",
      ]],
    248 => # 狐魔獣
      [[
        "魔獣の特質が強く発現している妖狐",
        "魔力は控え目だが、肉体能力は卓越している",
        "強力な牙や爪を駆使して戦い、獣系スキルを習得",
        "スピードも一級品で、回避率も極めて高い",
      ],
      [
        "Armor: Clothes　Gi　Breastplates　Robes　Dresses　Skimpy",
        "　　　　　Hats　Fancy Caps",
        "Skills: Taoism　Ninjutsu　Beast　Nature",
        "Ability: Equip Fangs　SP Regen +5%",
        "　　　　　　Rumble",
        "",
      ]],
    250 => # 狐芸者
      [[
        "非常に多芸な妖狐の芸者",
        "狐族に伝わる歌や舞踊を覚える他、特別な料理も習得可能",
        "さらに扇の扱いを得意とし、強力な扇技を覚える",
        "直接戦闘はやや苦手だが、補助役としては申し分ない",
      ],
      [
        "Armor: Clothes　Gi　Robes　Dresses　Skimpy　Hats",
        "　　　　　Magic Hats　Fancy Caps　Bucklers",
        "Skills: Fans Taoism Ninjutsu Dancing Singing Cooking",
        "　　　　Sexcraft Beast Nature",
        "Ability: SP Regen +5%　Fan Booster",
        "",
      ]],
    254 => # ラミア
      [[
        "A type of monster with the lower body of a snake.",
        "They use their giant tails as a weapon, and their",
        "thick, scaly hide provides good defense. They excel",
        "with flails and learn powerful attack skills.",
      ],
      [
        "Armor: Clothes Gi Breastplates Armor Robes Skimpy",
        "       Hats Helmets Fancy Caps Bucklers Shields",
        "Skills: Flails　Demon Arts　Snake",
        "Ability： Stun Strike 10%",
        "",
      ]],
    255 => # ラミアンボア
      [[
        "獲物を嫐る事に悦びを覚える残酷なラミア",
        "敵を尻尾で締め付けたり、丸呑みにするなどの技を好む",
        "鉄球の扱いにも長け、己の尻尾のように振るう事が可能",
        "防御力も極めて高く、乱戦に適した種族である",
      ],
      [
        "Armor: Clothes Gi Breastplates Armor Robes Skimpy",
        "       Hats Helmets Fancy Caps Bucklers Shields",
        "Skills: Flails　Demon Arts　Snake",
        "Ability: Stun Strike 20%",
        "",
      ]],
    257 => # シスターラミア
      [[
        "癒しの力を身につけた敬虔深きラミア",
        "回復技のみならず、聖なる波動の攻撃技も覚える",
        "優しく抱き締めるように巻き付く拘束技も習得可能",
        "物理攻撃よりは魔法に優れ、魔導師としても有能",
      ],
      [
        "Armor: Clothes Gi Breastplates Armor Robes Skimpy",
        "       Hats Helmets Fancy Caps Bucklers Shields",
        "Skills: Flails White Magic Demon Arts Snake",
        "Ability: Stun Strike 10%",
        "",
      ]],
    259 => # 蛇巫女
      [[
        "心身を鍛練した、心清き巫女のラミア",
        "神に捧げる舞踊を得意とし、様々な恩恵をもたらす",
        "また、踊りによって大自然を荒れ狂わせる事も可能",
        "舞うような鉄球技を習得し、物理攻撃も他に劣らない",
      ],
      [
        "Armor: Clothes Gi Breastplates Robes Skimpy Hats",
        "       Fancy Caps Bucklers",
        "Skills: Flails　Dancing　Demon Arts　Snake",
        "Ability: Stun Strike 10%",
        "",
      ]],
    261 => # メデューサ
      [[
        "下半身の代わりに、髪が蛇になっている蛇妖の亜種",
        "敵を石にする魔力を備え、石化スキルを修得できる",
        "またパワフルな鉄球技を覚え、敵を薙ぎ倒すことが可能",
        "頭の蛇が文句を言うので、帽子や兜は装備できない",
      ],
      [
        "Armor: Clothes Gi Breastplates Armor Robes Skimpy",
        "　　　　　Bucklers　Shields",
        "Skills: Flails　Demon Arts　Snake",
        "Ability: Counter 50%",
        "",
      ]],
    265 => # スキュラ
      [[
        "A monster with multiple soft tentacles for a lower",
        "body. They can use their tentacles like whips,",
        "attacking enemies repeatedly. Scylla also learn",
        "very powerful dual-wielding skills. However, their",
        "defense is poor.",
      ],
      [
        "Armor: Clothes Gi Breastplates Robes Skimpy Hats",
        "       Fancy Caps",
        "Skills: Multiweapon　Tentacles",
        "Ability： Triple Attack",
        "",
      ]],
    266 => # ハイスキュラ
      [[
        "より触手の扱いに長けた上位のスキュラ",
        "連続攻撃にも磨きが掛かり、敵に大ダメージを与える",
        "また触手で敵を愛撫し、快楽を与える技も修得可能",
        "やはり防御には難があり、極めて脆い一面がある",
      ],
      [
        "Armor: Clothes Gi Breastplates Robes Skimpy Hats",
        "       Fancy Caps",
        "Skills: Multiweapon　Tentacles",
        "Ability: Triple Attack　触手技二連続発動",
        "",
      ]],
    270 => # スキュラメイド
      [[
        "無数の触手をフルに使って働くメイドのスキュラ",
        "触手を駆使した連続御奉仕技で、無類の働きを見せる",
        "回復技も習得し、オールマィティな活躍が可能",
        "器用さ以外の能力は高くないが、サポート役に最適",
      ],
      [
        "Armor: Clothes Gi Breastplates Robes Skimpy Hats",
        "       Fancy Caps",
        "Skills: Service　Tentacles",
        "Ability： Triple Attack",
        "",
      ]],
    274 => # ハーピー
      [[
        "Flying monster girls with big wings, they glide",
        "around enemy attacks with ease. They also learn",
        "energetic dances to boost stats and morale. Proficient",
        "at stealing too, but can't take a lot of hits.",
      ],
      [
        "Armor: Clothes Gi Skimpy Hats Fancy Caps",
        "Skills: Fans Thievery Dancing Wing",
        "Ability: None",
        "",
      ]],
    275 => # ウィングハーピー
      [[
        "高速飛行に適した大型の翼を備えたハーピー",
        "素早さが非常に高く、回避能力にも優れている",
        "ハーピー族特有の踊りを覚える他、特別な盗賊技も修得",
        "やはり戦闘性能は高くなく、サポート向き",
      ],
      [
        "Armor: Clothes Gi Skimpy Hats Fancy Caps",
        "Skills: Fans Thievery Dancing Wing",
        "Ability: None",
        "",
      ]],
    277 => # ハーピーナイト
      [[
        "争いが苦手なハーピーには珍しく、武芸を身につけた戦士",
        "素早さを活かした豊富な槍技で敵を圧倒する",
        "また、ハーピー戦士に伝わる特別な踊りが修得可能",
        "重装備が可能なものの、やはり防御力が低いので注意",
      ],
      [
        "Armor: Clothes Gi Breastplates Armor Skimpy Hats Helmets",
        "       Fancy Caps",
        "Skills: Spears Thievery Dancing Wing",
        "Ability: None",
        "",
      ]],
    279 => # エイビス
      [[
        "魔獣の特質が強く発現している亜種の怪鳥モンスター",
        "肉体的能力が非常に高く、牙や爪で敵を引き裂く",
        "また羽根で巻き起こす突風や、吐き出す炎で攻撃可能",
        "魔法は苦手なものの、戦闘能力は極めて高い",
      ],
      [
        "Armor: Breastplates　Hats　Fancy Caps",
        "Skills: Thievery　Beast　Wing　Breath",
        "Ability: Equip Fangs",
        "",
      ]],
    283 => # ドラゴン
      [[
        "Powerful monster girl famed for its strength.",
        "Fangs and claws alike wield fantastic power.",
        "With its trademark fire breath and excellent",
        "stats, this race screams reliability",
      ],
      [
        "Armor: Clothes　Breastplates　Armor　Heavy Armor Hats Helmets",
        "　　　　　Heavy Helmets Bucklers Shields Heavy Shields",
        "Skills: Beast Breath",
        "Ability: Equip Fangs",
        "",
      ]],
    284 => # 竜人
      [[
        "人型の要素が強く発現しているドラゴン系モンスター",
        "その肉体能力の高さは健在で、並外れた武技を誇る",
        "剛力を活かした剣技や、竜族に伝わる格闘技を習得",
        "またアビリティ「SPチャージ2倍」は、特に心強い",
      ],
      [
        "Armor: Clothes　Breastplates　Armor　Heavy Armor　Hats　Helmets",
        "       Heavy Helmets　Bucklers　Shields　Heavy Shields",
        "Skills: Daggers Swords Unarmed Beast Breath",
        "Ability: None",
        "",
      ]],
    287 => # 飛竜
      [[
        "竜の要素が強く発現しているドラゴン系モンスター",
        "翼を持った個体が多いが、必ずしも空を飛ばない",
        "激しい炎や、翼を用いた突風で敵を攻撃する",
        "肉弾戦の能力が極めて高く、物理スキルも強力",
      ],
      [
        "Armor: Clothes　Breastplates　Armor　Hats　Helmets",
        "Skills: Beasts　Wing　Breath",
        "Ability: Equip Fangs",
        "",
      ]],
    289 => # 海竜
      [[
        "船乗り達に畏怖される海の巨大竜",
        "大津波を起こし、その息は全てを凍てつかせる",
        "一般の竜族よりは、若干ながら魔力が高い",
        "防御力も高く、あらゆる局面で活躍できる",
      ],
      [
        "Armor: Clothes　Breastplates　Armor　Hats　Helmets",
        "Skills: Beast　Nature　Breath",
        "Ability: Equip Fangs　Sea Strength",
        "",
      ]],
    293 => # 陸棲種
      [[
        "A general term for reptilian and amphibian",
        "monsters who live on land. They typically have breath skills",
        "and other toxic attacks along with skills to use their bodies",
        "as weapons. HP and defense are high, but other stats are",
        "mediocre.",
      ],
      [
        "Armor: Clothes Breastplates Shell　Robes Hats Fancy Caps",
        "       Bucklers",
        "Skills: Slime Beast Tentacles Breath",
        "Ability： Metabolism Up",
        "",
      ]],
    294 => # 陸上魔類
      [[
        "強靱な肉体を持った陸棲モンスターの上位種",
        "炎を吐く他、肉体を用いた様々な攻撃を修得する",
        "また、体内の毒素を攻撃に用いることも可能、",
        "バランスの取れた能力値で、特に生命力が高い",
      ],
      [
        "Armor: Clothes Breastplates Shell　Robes Hats Fancy Caps",
        "       Bucklers",
        "Skills: Slime Beast Tentacles Breath",
        "Ability: Super Metabolism",
        "",
      ]],
    296 => # 軟体搾精種
      [[
        "軟体と粘膜のボディを備えた、独特の陸棲種",
        "全身から滴る粘液を武器として使う技を習得可能",
        "快楽攻撃も得意で、軟体や粘液で相手に快楽を与える",
        "その体は衝撃を受け流し、防御力は高い",
      ],
      [
        "Armor: Clothes Breastplates Shell　Robes Hats Fancy Caps",
        "       Bucklers",
        "Skills: Slime Beast Tentacles Breath",
        "Ability: Slime Strike 20%　Regen Up",
        "　　　　　　100以下ダメージ無効",
        "",
      ]],
    298 => # 魔物狩り狩り
      [[
        "魔物ハンターを狩る、逆ハントのエキスパート",
        "弓を得意とし、狩人を返り討ちにするスキルを修得する",
        "人間やエルフには特に強く、種族特攻ダメージを強化可能",
        "魔法は苦手だが、弓の扱いに向いている",
      ],
      [
        "Armor: Clothes　Gi　Breastplates　Shells　Robes　Hats",
        "　　　　　Fancy Caps",
        "Skills: Bows　Slime　Beast　Tentacles　Breath",
        "Ability: Regen Up　Nullify Ambush",
        "　　　　　　Preemptive Strike Up　Endure　Slayer Boost",
        "",
      ]],
    301 => # 海棲種
      [[
        "A general term for monsters who live in and around the",
        "seas and oceans. They use tentacles as weapons, and some",
        "spew ink or bubbles. Their defense is better than the",
        "land-dwellers, but attack power is somewhat inferior.",
      ],
      [
        "Armor: Breastplates Shells　Robes Fancy Caps Bucklers",
        "Skills: Ocean Tentacles",
        "Ability： Ocean Boost",
        "",
      ]],
    302 => # 海洋搾精種
      [[
        "大洋を住処とした海棲モンスター",
        "主に触手攻撃を得意し、剛力で敵を撫ぎ倒す",
        "またその魔力で大海嘯を起こす事も可能",
        "肉体は頑強で、ほとんどの能力が平均より高い",
      ],
      [
        "Armor: Breastplates　Shells　Robes　Fancy Caps　Bucklers",
        "Skills: Ocean　Tentacles",
        "Ability： Ocean Boost",
        "",
      ]],
    304 => # 深海搾精種
      [[
        "深海での生活に順応した海棲種",
        "触手に仕込んだ麻痺針や、敵を恍惚に浸らせる技を覚える",
        "また海中で放電することで、敵全体を電撃攻撃可能",
        "水圧に耐えられるよう、通常海棲種より体が頑丈",
      ],
      [
        "Armor: Breastplates　Shells　Robes　Fancy Caps　Bucklers",
        "Skills: Ocean　Tentacles",
        "Ability: Deep Sea Strength",
        "",
      ]],
    306 => # 竜宮舞妓
      [[
        "海中の竜宮城に仕える可憐な歌姫",
        "竜宮に伝わる様々な踊りや歌を修得する",
        "また、波に舞うような扇技を修得可能",
        "器用さを除いて能力値は低く、肉弾戦は不向き",
      ],
      [
        "Armor: Breastplates　Shells　Robes　Skimpy　Magic Hats",
        "       Fancy Caps　Bucklers",
        "Skills: Dancing Singing Sexcraft Ocean Tentacles",
        "Ability： Ocean Boost",
        "",
      ]],
    309 => # 妖虫
      [[
        "Taut and firm insect girl. Brandishes stingers",
        "and scales to attack and weaken enemies. A sturdy",
        "carapace provides high defense but little protection",
        "against status ailments.",
      ],
      [
        "Armor: Shells Hats Fancy Caps",
        "Skills: Insect",
        "Ability: Great Defense　Desert Strength",
        "",
      ]],
    310 => # 闇蟲
      [[
        "非常に強固な外骨格を備えた昆虫系モンスター",
        "体に備わった鎌や針を武器とし、多くの特技を覚える",
        "また、超震動を発生させて敵全体を攻撃可能",
        "魔法は苦手だが、攻撃力や防御力は極めて高い",
      ],
      [
        "Armor: Shells Hats Fancy Caps",
        "Skills: Insect",
        "Ability: Ultimate Defense　Desert Strength",
        "",
      ]],
    312 => # レギオン
      [[
        "蜂や蟻など、集団で行動する社会性昆虫モンスター",
        "群れでの攻撃が得意で、戦闘中に仲間を呼ぶ事が可能",
        "腹部の針も武器となる他、格闘技も修得している",
        "体格は人間に近い分、一般の虫系より防御力は少し劣る",
      ],
      [
        "Armor: Breastplates　Shells　Hats　Fancy Caps",
        "Skills: Unarmed　Insect",
        "Ability: Desert Strength",
        "",
      ]],
    314 => # アラクネ
      [[
        "虫系の亜種とされる蜘蛛型のモンスター",
        "同種に比べて魔力が高く、時を自在に紡ぐと言われる",
        "時魔法を使用可能で、サポート能力は非常に高い",
        "また腹部から吐き出す粘糸は、攻撃や拘束など多岐に使用可能",
      ],
      [
        "Armor: Clothes Breastplates Robes Dresses Skimpy Hats",
        "       Magic Hats Fancy Caps",
        "Skills: Time Magic　Insect",
        "Ability: None",
        "",
      ]],
    319 => # アルラウネ
      [[
        "Gently seductive flower monsters with healing power.",
        "Using things like ivy and pollen, Alraunes use their",
        "bodies offensively. They are also skilled with whips",
        "and learn basic whip skills, but are best suited using",
        "their nectar in a healing role for the party.",
      ],
      [
        "Armor: Gi Breastplates Robes Hats Magic Hats",
        "       Fancy Caps Bucklers",
        "Skills: Whips White Magic　Plants",
        "Abilities： Poison, Confuse, Paralyze Strike 5%",
        "           Medicinal Knowledge 1　Whip Booster",
        "",
      ]],
    320 => # ハイアルラウネ
      [[
        "さらに癒しの能力を増した、心優しい妖花",
        "ツタは強力な武器であり、敵への打撃や拘束が可能",
        "癒しの力も増し、その蜜は味方を大きく回復させる",
        "直接戦闘は苦手だが、回復役としては申し分ない",
      ],
      [
        "Armor: Gi Breastplates Robes Hats Magic Hats",
        "       Fancy Caps Bucklers",
        "Skills: Whips White Magic　Plants",
        "Ability: Poison, Confuse, Paralyze Strike 5%",
        "           Medicinal Knowledge 2　Whip Booster",
        "",
      ]],
    322 => # ワルラウネ
      [[
        "闇に目覚めた邪悪なアルラウネ",
        "敵を嫐るような技を覚え、胞子や妖花で精気を搾り取る",
        "また攻撃的な鞭技を習得し、敵に損害をもたらす",
        "一般アルラウネよりも戦闘的なスキルを多く修得可能",
      ],
      [
        "Armor: Gi Breastplates Robes Hats Magic Hats",
        "       Fancy Caps Bucklers",
        "Skills: Whips Black Magic　Plants",
        "Ability: Poison, Confuse, Paralyze Strike 7%",
        "　　　　　　Whip Booster 植物技状態異常率アップ",
        "",
      ]],
    324 => # 食虫淫花
      [[
        "食虫植物の特性を強く発現させたアルラウネの亜種",
        "敵を溶解したり、捕食したりする技を覚える",
        "また、拘束した敵を消化する特有の鞭技を習得",
        "植物族の中では攻撃力が高く、直接戦闘も可能",
      ],
      [
        "Armor: Gi Breastplates Robes Hats Magic Hats",
        "       Fancy Caps Bucklers",
        "Skills: Whips Slime　Plants",
        "Ability: Digestion Strike 5% Trance Strike 5%",
        "　　　　　　Whip Booster",
      ]],
    328 => # ゾンビ
      [[
        "Shambling corpse reanimated by unknown means.",
        "With no memory or sense of self to speak of,",
        "its stats amount to little else but endurance",
        "and brute force. Preferably with a club.",
      ],
      [
        "Armor: Clothes　Breastplates　Armor　Heavy Armor",
		"        Hats　Helmets　Heavy Helmets",
        "Skills: Clubs　Dancing　Corpse　Breath",
        "Ability: Poison Strike 5%　Zombie Strike 5%",
        "",
      ]],
    329 => # ハイアンデッド
      [[
        "ただのゾンビより位の高いアンデッドモンスター",
        "やはり複雑な思考は苦手であり、棍で敵を叩き伏せる",
        "体内の毒素も殺傷力を増し、攻撃技として使用可能",
        "攻撃力は高いが、魔法は全くの不得手である",
      ],
      [
        "Armor: Clothes　Breastplates　Armor　Heavy Armor",
		"       Hats　Helmets　Heavy Helmets",
        "Skills: Clubs　Dancing　Corpse　Breath",
        "Ability: Poison Strike 10%　Zombie Strike 10%",
        "",
      ]],
    331 => # マミー
      [[
        "符呪の包帯を用いて魔導蘇生させた特殊なアンデッド",
        "一般のゾンビに比べて魔力が高く、強力な呪法を使用する",
        "また呪具の包帯を伸ばし、敵を拘束することも可能",
        "魔力が高いので、魔法攻撃役に向いている",
      ],
      [
        "Armor: Clothes Breastplates Armor Robes Hats Helmets Magic Hats",
        "Skills: Clubs Black Magic Demon Arts Corpse",
        "Ability: Mini Strike 5%　Petrify Strike 5%",
        "",
      ]],
    333 => # ゾンビドクター
      [[
        "自分自身も死んだ肉体を備えた、狂気の医師",
        "医学的知識で生物汚染を起こし、周囲に毒を撒き散らす",
        "また敵にウィルスを注射し、ゾンビ化させる事も可能",
        "能力値は高くなく、回復役やサポート役に向いている",
      ],
      [
        "Armor: Clothes Breastplates Armor Robes Hats Helmets Magic Hats",
        "Skills: Magic Science　Alchemy　Medicine　Corpse",
        "Ability: Poison Strike 15%　Zombie Strike 15%",
        "",
      ]],
    336 => # ゴースト
      [[
        "Ethereal being made of dark magic and souls. These",
        "undead creatures are masters of haunted flames.",
        "Deadly with scythes and strong against physical",
        "attacks, but poor against magic.",
      ],
      [
        "Armor: Robes　Magic Caps",
        "Skills: Scythes Black Magic Corpse",
        "Ability: Death Strike 5%　Magic Reflection 10%　Scythe Booster",
        "",
      ]],
    337 => # エビルミスト
      [[
        "高濃度の魔素を蓄積した上位のゴースト",
        "その魔力による発火現象で、敵全体を焼き尽くす",
        "鎌の扱いにも長け、より上位の鎌技を習得できる",
        "その性技は敵のHPを吸収可能で、攻めの幅は広い",
      ],
      [
        "Armor: Robes　Magic Caps",
        "Skills: Scythes Black Magic Corpse",
        "Ability: Death Strike 10%　Magic Reflection 30%　Scythe Booster",
        "",
      ]],
    339 => # 魔棲の書物
      [[
        "書物に取り憑いたゴーストの亜種",
        "珍しい魔本術を修得し、攻撃から回復まで多芸",
        "また、自身の肉体からページを創出する事も可能",
        "魔導師型の能力だが、防御が高く魔法防御が低い",
      ],
      [
        "Armor: Robes　Magic Caps",
        "Skills: Alchemy　Grimoire　Corpse",
        "Ability: Scythe Booster",
        "",
      ]],
    341 => # ミミック
      [[
        "宝箱に取り憑いたトラップ系のゴースト",
        "鋭い牙で攻撃する他、捕食系のスキルを修得可能",
        "また粘液も扱うことができ、消化の助けとする",
        "ゴースト系の中では防御力が高め",
      ],
      [
        "Armor: Robes　Magic Caps",
        "Skills: Black Magic　Slime　Corpse",
        "Ability: Death Strike 20%　Cave Strength",
        "       Preemptive Surprise Box Scythe Booster",
        "",
      ]],
    344 => # ドール
      [[
        "Basic construct with free will. Fights with weapons",
        "implanted within its body. In accordance with the Laws",
        "of Robotics, it gladly serves others and learns as it goes.",
        "Its artificial body blocks most ailments.",
      ],
      [
        "Armor: Clothes　Robes　Dresses　Skimpy　Hats　Fancy Caps",
        "　　　　　Bucklers",
        "Skills: Service　Demon Arts　Artificial",
        "Ability: None",
        "",
      ]],
    345 => # エビルマータ
      [[
        "霊的要因により力が強まった人形系モンスター",
        "作り物の体を武器とし、仕込まれたギミックで攻撃",
        "また、伸びた髪で敵の精を啜ることもできる",
        "能力値はそう高くないが、多彩なスキルは有用",
      ],
      [
        "Armor: Clothes　Robes　Dresses　Skimpy　Hats　Fancy Caps",
        "       Bucklers",
        "Skills: Service　Demon Arts　Artificial",
        "Ability: None",
        "",
      ]],
    347 => # ボーカロイド
      [[
        "歌唱能力を備えた芸能ドール",
        "様々な歌により、敵に状態異常をもたらす",
        "また、音を武器にしてダメージを与える事も可能",
        "サポート役として優秀だが、肉弾戦には向かない",
      ],
      [
        "Armor: Clothes　Robes　Dresses　Skimpy　Hats　Fancy Caps",
        "Skills: Singing　Service　Artificial",
        "Ability: None",
        "",
      ]],
    349 => # ゴーレム
      [[
        "魔導科学により製造された大型人造生命体",
        "石や金属で造られており、その体は非常に頑丈",
        "またパワーも凄まじく、圧倒的な力を見せ付ける",
        "巨体を武器にした物理スキルを複数修得可能",
      ],
      [
        "Armor: Clothes Breastplates Heavy Armor Helmets Fancy Caps",
        "Skills: Artificial",
        "Ability: Endure",
        "",
      ]],
    351 => # 下位アポトーシス
      [[
        "タルタロスに出現する未知の存在",
        "正体は全くの不明で、生命体であるかも疑わしい",
        "機械兵器を自在に使いこなすほか、闇の力を使用",
        "能力は極めて高く、属性や状態異常にも強い",
      ],
      [
        "Armor: Clothes Breastplates Shells Robes Dresses",
        "       Skimpy Hats Fancy Caps Helmets Bucklers Shields",
        "Skills: Guns Time Magic Dark Machine Artificial",
        "Ability: None",
        "",
      ]],
    354 => # キメラ
      [[
        "Artificial monster made by state-of-the-art",
        "biotechnology. Hodgepodge of superior parts grants",
        "it superb fighting power. Can breath fire, ice,",
        "and even electricity. Comes with basic self-repair",
		"systems and fantastic vitality.",
      ],
      [
        "Armor: Breastplates　Shells　Skimpy　Hats　Helmets　Bucklers",
		"      Shields",
        "Skills: Beast　Artificial　Breath",
        "Ability: None",
        "",
      ]],
    355 => # 三種混合体
      [[
        "複数のモンスターを元にして造り出された複合キメラ",
        "選り抜かれた肉体を持ち、強力な破壊ブレスを放射可能",
        "また他の生命体を取り込み、吸収する事ができる",
        "能力値も非常に高く、大いに活躍するだろう",
      ],
      [
        "Armor: Breastplates Shells Skimpy Hats Helmets Bucklers Shields",
        "Skills: Beast　Artificial　Breath",
        "Ability: None",
        "",
      ]],
    357 => # 魔導キメラ
      [[
        "妖魔の遺伝子を加え、魔力を主眼に造られたキメラ",
        "その施術により、強大な魔力を与えられている",
        "人造精霊の召喚機能も備わり、戦闘能力は高い",
        "魔力以外の能力も低くなく、肉弾戦にも対応可能",
      ],
      [
        "Armor: Breastplates Shells Robes Skimpy Hats Helmets",
        "       Magic Hats Bucklers Shields",
        "Skills: White Magic Black Magic Summoning Demon Arts Artificial",
        "　　　　Breath",
        "Ability: None",
        "",
      ]],
    359 => # キメラロイド
      [[
        "機械組織を多く組み込んだ特殊なタイプのキメラ",
        "全身に機械兵器を備え、圧倒的な火力で敵を滅ぼす",
        "修復機能も備わり、戦闘性能は極めて高い",
        "攻撃と防御に優れているが、鈍重で魔法は苦手",
      ],
      [
        "Armor: Breastplates Shells Skimpy Hats Helmets Bucklers Shields",
        "Skills: Guns　Machines　Artificial",
        "Ability: None",
        "",
      ]],
    362 => # 下位天使
      [[
        "The vanguard in the armies of Heaven. Their holy power",
        "can be used for both attacking and healing. Skilled with",
        "swords and Holy Sword techniques. Balanced stats and",
        "excellent resistances.",
      ],
      [
        "Armor: Clothes Armor Heavy Armor Robes Dresses Skimpy Hats",
        "       Helmets　Heavy Helmets Magic Hats　Fancy Caps Bucklers Shields",
        "       Heavy Shields",
        "Skills: Daggers Swords Rapiers White Magic　Holy",
        "Ability： Divine Protection",
        "",
      ]],
    363 => # 上位天使
      [[
        "通常は地上に現界しない上位天使",
        "神より授かった聖なる力で邪悪に裁きを与える",
        "また、神敵を滅ぼす強力な剣技も修得可能",
        "攻撃と回復の両面で優れ、戦闘に貢献するだろう",
      ],
      [
        "Armor: Clothes Armor Heavy Armor Robes Dresses Skimpy Hats",
        "       Helmets Heavy Helmets Magic Hats Fancy Caps Bucklers",
		"       Shields　Heavy Shields",
        "Skills: Daggers Swords Rapiers White Magic Holy",
        "Ability: Body of Grace",
        "",
      ]],
    365 => # 堕天使
      [[
        "最上位でありながら、神に反逆し地に堕ちた天使",
        "その剣は聖なる力を備えながらも、神の意に沿わない",
        "攻撃的なスキルを複数修得し、高い戦闘力を誇る",
        "また、己の体を思念で癒やす事も可能だという",
      ],
      [
        "装備防具：服　鎧　重鎧　ローブ　ドレス　薄着　帽子",
        "　　　　　兜　重兜　魔帽　高級帽　軽盾　盾　重盾",
        "スキル：短剣技　剣技　尖剣技　黒魔法　聖技　闇技",
        "アビリティ：奇跡の肉体",
        "",
      ]],
    366 => # ヴァルキリー
      [[
        "神敵を滅ぼす役目が与えられた戦天使",
        "天使の中でも武芸に特化し、強力な槍技を習得可能",
        "その一撃一撃に聖なる力がこもり、悪を討ち滅ぼす",
        "またMPを消費し、SPを一気にチャージする事が可能",
      ],
      [
        "Armor: Clothes Armor Heavy Armor Robes Dresses Skimpy Hats",
        "       Helmets Heavy Helmets Magic Hats Fancy Caps Bucklers",
		"       Shields　Heavy Shields",
        "Skills: Daggers Swords Rapiers Spears Holy Magic Swords",
        "Ability: Body of Grace",
        "",
      ]],
    368 => # キューピッド
      [[
        "人間の感情や情欲を司る愛天使",
        "その弓矢は、射られた相手の心をかき乱す",
        "また、邪悪を滅ぼす攻撃弓技も習得可能",
        "癒しの力にも優れ、回復技も得意としている",
      ],
      [
        "Armor: Clothes　Gi　Armor　Robes　Dresses　Skimpy",
        "       Hats　Helmets　Magic Hats　Fancy Caps　Bucklers",
        "Skills: Bows　White Magic　Black Magic　Holy　Sexcraft",
        "Ability: Seduction Strike 10%　Body of Grace",
        "",
      ]],
  }
end

